<?xml version="1.0" encoding="utf-8"?>
<!-- Generator: Adobe Illustrator 23.0.1, SVG Export Plug-In . SVG Version: 6.00 Build 0)  -->
<svg version="1.1" id="hills" xmlns="http://www.w3.org/2000/svg" xmlns:xlink="http://www.w3.org/1999/xlink" x="0px" y="0px"
	 viewBox="0 0 1386 137.3" style="enable-background:new 0 0 1386 137.3;" xml:space="preserve">
<style type="text/css">
	#hillsBox .st0{fill:none;}
	#hillsBox .st1{fill:#222222;}
	#hillsBox .st2{fill:#282828;}
</style>
<g id="hillsBox">
	<g>
		<rect x="525.4" y="64.2" class="st0" width="3.6" height="6.3"/>
		<path class="st0" d="M568.7,90.8c1-0.9,1.9-1.8,2.9-2.7h-2.9V90.8z"/>
		<path class="st0" d="M842.9,40.5c3,0,11-0.2,19.8-0.7l3.1-3.8v-7.9c-7.2,0.7-15.6,1.3-23,1.3s-15.8-0.6-23-1.3L820,36l3.1,3.8
			C832,40.3,839.9,40.5,842.9,40.5z"/>
		<path class="st0" d="M622.8,36.3V50c1.2-0.3,2.3-0.6,3.5-0.9V36.3H622.8z"/>
		<rect x="536.2" y="64.2" class="st0" width="3.6" height="6.3"/>
		<rect x="514.5" y="88.1" class="st0" width="3.7" height="5.9"/>
		<rect x="530.8" y="64.2" class="st0" width="3.6" height="6.3"/>
		<path class="st0" d="M563.3,88.1V94h1.9c0.6-0.5,1.1-1,1.7-1.5v-4.4H563.3z"/>
		<rect x="552.5" y="88.1" class="st0" width="3.6" height="5.9"/>
		<rect x="541.6" y="88.1" class="st0" width="3.6" height="5.9"/>
		<rect x="547" y="88.1" class="st0" width="3.7" height="5.9"/>
		<path class="st0" d="M628,36.3v12.4c1.2-0.2,2.3-0.4,3.5-0.6V36.3H628z"/>
		<polygon class="st0" points="877.4,94.4 877.4,84.8 873.3,84.8 873.5,94.4 		"/>
		<rect x="557.9" y="88.1" class="st0" width="3.6" height="5.9"/>
		<path class="st0" d="M633.2,36.3v11.5c1.2-0.1,2.3-0.3,3.5-0.4V36.3H633.2z"/>
		<path class="st0" d="M540.7,100.8c-2.8,0-5.1,2.3-5.1,5.1h0.2v5.5c3.5-0.9,6.8-2.2,10-3.8v-1.7
			C545.8,103.1,543.5,100.8,540.7,100.8z"/>
		<rect x="536.2" y="88.1" class="st0" width="3.6" height="5.9"/>
		<path class="st0" d="M859.6,77.4v4.2h5.1l0.8-35.8l-22.6,0.6l-22.6-0.6l0.9,35.8h5.1v-4.2h5.4v18.2c0.3,0.2,0.6,0.4,0.9,0.6
			c6.7,4.7,14,9.4,21.6,12.2v-31H859.6z"/>
		<path class="st0" d="M821.4,84.8l0.1,4c1.7,1,3.3,2.1,4.9,3.2v-7.1H821.4z"/>
		<rect x="520" y="88.1" class="st0" width="3.6" height="5.9"/>
		<rect x="530.8" y="88.1" class="st0" width="3.6" height="5.9"/>
		<rect x="541.6" y="64.2" class="st0" width="3.6" height="6.3"/>
		<rect x="547" y="64.2" class="st0" width="3.7" height="6.3"/>
		<polygon class="st0" points="859.6,94.4 864.4,94.4 864.6,84.8 859.6,84.8 		"/>
		<path class="st0" d="M873.6,97.6l0.1,12.3c1.3-0.3,2.5-0.7,3.7-1.2V97.6H873.6z"/>
		<path class="st0" d="M859.6,97.6V110c1.5,0.3,3,0.6,4.5,0.7l0.2-13.1H859.6z"/>
		<rect x="552.5" y="64.2" class="st0" width="3.6" height="6.3"/>
		<rect x="525.4" y="88.1" class="st0" width="3.6" height="5.9"/>
		<path class="st1" d="M754.1,103.2c-1.1-2.1-2.4-3.4-3.8-4.6c0,0-0.1,0-0.1,0h-3.4c0.8,0.7,1.6,1.3,2.3,2c1.4,1.5,2.4,3.4,2.9,5.4
			c0.9-0.5,1.8-1.1,2.6-1.7C754.5,103.9,754.3,103.6,754.1,103.2z"/>
		<path class="st1" d="M744.3,90.5C744.3,90.5,744.3,90.5,744.3,90.5c0.2,0.1,0.4,0.1,0.6,0.2c0.3-2,1.6-4.2,2.1-6.2
			c0.6-2.5,0.3-5.1-0.9-7.3c-0.3-0.6-0.6-1.1-1-1.6c-0.3,0-0.6-0.1-0.9-0.1c0.3,0.4,0.5,0.8,0.7,1.2c1.4,3.2,1.5,4.1,0.9,6.8
			c-0.2,0.7-0.5,1.4-0.7,2.1c0.2,0.2,0.3,0.3,0.4,0.5c-0.3,0.5-0.6,1.1-0.9,1.6c0-0.2-0.1-0.4-0.2-0.6c-0.2,0.5-0.5,1.1-0.7,1.6
			c-0.3,0.6-0.5,1.2-0.7,1.8C743.4,90.4,743.9,90.4,744.3,90.5z"/>
		<path class="st1" d="M748.3,93c0.1-0.2,0.1-0.3,0.2-0.3c0.9-1.4,2.2-2.6,3.7-3.4c2-1,4.3-1.4,6.1-2.7c1.4-1.1,2.3-2.7,2.6-4.5
			l-0.7,0c-0.5,1.4-1.4,2.7-2.6,3.7c-2.2,1.6-5,1.8-7.3,3.1c-0.4,0.2-0.7,0.4-1,0.7c-0.9,0.9-1.7,2-2.4,3.1
			C747.4,92.5,747.9,92.7,748.3,93z"/>
		<path class="st1" d="M745.5,86.1c-0.1-0.2-0.3-0.4-0.4-0.5c-0.4-0.4-1-0.7-1.6-0.9c-0.9-0.1-1.9,0-2.8,0.2c-0.9,0.3-1.8,0.3-2.7,0
			c-0.4-0.2-0.7-0.4-0.9-0.7c-0.2,0-0.3,0-0.5,0c0.1,0.4,0.3,0.7,0.7,1c0.8,0.5,1.8,0.7,2.7,0.6c0.9-0.1,1.9-0.1,2.8,0.1
			c0.7,0.1,1.3,0.6,1.6,1.3c0.1,0.2,0.2,0.4,0.2,0.6C744.9,87.2,745.2,86.6,745.5,86.1z"/>
		<path class="st1" d="M764.4,82.1h5c0.8,0,1.8,0.5,2.5,0.2c0.4-0.1,0.7-0.4,0.8-0.8c0.2-0.6-0.2-1.3-0.8-1.5
			c-0.8-0.3-1.8,0-2.4,0.6v-0.3c-0.5-0.8-1.4-1.1-2.3-0.8l-0.3-0.1c-0.1-0.6-0.6-1.1-1.2-1.1c0,0-0.1,0-0.1,0c-0.6,0-1,0.4-1.1,0.9
			c-0.1-0.5-0.2-0.9-0.4-1.4c-2.8,0.1-5.7,0.3-8.5,0.2c-0.2,0.7-0.2,1.5-0.3,2.2c-0.6-0.3-1.3,0.5-1.1,1.1c0.2,0.6,0.8,1,1.5,1
			c0.9,0,1.7-0.4,2.6-0.4l2,0l0.7,0L764.4,82.1z"/>
		<path class="st1" d="M764.1,77.8c0.6,0,1.1,0,1.6,0c1.9,0,3.7,0.3,5.6,0.3c0.9,0.1,1.8,0,2.7-0.3c0.2-0.1,0.3-0.2,0.5-0.3
			c1.3-1.1-1.3-1.1-1.4-1.1c0-0.2-0.1-0.4-0.3-0.6c0,0,0,0,0,0c-0.7-0.8-1.9-0.9-2.7-0.2c0.2-0.6,0-1.2-0.4-1.6
			c-0.4-0.4-1-0.5-1.5-0.4c0.1-0.9-0.1-1.7-0.5-2.5c-0.4-0.7-1.2-1.2-2.1-1.2c-0.9,0.1-1.6,0.8-1.7,1.7c0-0.6-0.4-1.2-1-1.5
			c-0.6-0.2-1.3-0.1-1.8,0.3c-0.1-0.1-0.1-0.1-0.1-0.2c-0.4-1.1-1.6-1.7-2.7-1.3c-1.1,0.5-1.9,1.5-2,2.7c0,1,0.2,1.9,0.6,2.8
			c-0.5-0.4-1.3-0.5-1.9-0.2c0,0-0.1,0-0.1,0.1c-0.9,0.5-1.3,1.6-0.9,2.5c-0.6-1.3-3.6,0.8-0.8,1.1c0.8,0.1,1.6,0.1,2.3,0.2
			C758.4,78.2,761.2,77.9,764.1,77.8z"/>
		<path class="st1" d="M740.7,84c0.5,0,0.5-0.2,1-0.2h0.1c0.4-0.1,0.5-0.5,0.4-0.9c-0.2-0.3-0.7-0.4-1-0.2c0-0.5,0-0.9-0.1-1.4
			c-0.1-0.5-0.4-0.9-0.9-1c0,0,0,0,0,0c-0.4-0.1-0.9,0.2-1,0.6c-0.1-0.7-0.4-1.4-0.8-2c-0.3-0.5-0.7-0.7-1.3-0.7
			c-0.8,0-1.4,0.6-1.4,1.4c0,0.5,0.1,1,0.2,1.5c-0.3-1.4-2.3-0.6-2.6,0.4c-0.6,2,1.2,2.6,3.3,2.6c0.2,0,0.3,0,0.5,0
			C738.6,84.2,740,84,740.7,84z"/>
		<path class="st1" d="M747.9,75.7c1.1-0.2,2.2-0.5,3.2-1.1c0.9-0.6,1.2-1.2-0.2-2.1c-0.9-0.4-1.9-0.2-2.5,0.5
			c0.1-0.6-0.1-1.2-0.6-1.6c-0.4-0.3-1-0.4-1.5-0.2c0-1.1-0.3-2.2-0.9-3.1c-0.6-0.9-1.9-1.2-2.8-0.6l-0.4,0.1c0-1-0.4-2-1.2-2.6
			h-2.9c0,0-0.1,0-0.1,0c-0.7,0.8-1,1.9-0.6,2.9c-0.5-1.2-1.8-1.7-3-1.2c-0.1,0-0.1,0.1-0.2,0.1c0,0,0.1,0,0.1,0.1
			c0.9,0.8,1.6,1.9,1.9,3.1c1-0.4,2.1-0.4,3,0.2c-0.9-0.1-1.9-0.1-2.8,0h-6.2c-0.2,0.4-0.3,0.8-0.3,1.2c0.1,0.9,0.2,1.7,0.5,2.5
			c-0.2-0.7-3.1-0.4-2,1c0.9,1.2,4.8,0.5,6.2,0.5h7.6c0.7,0,1.3,0.1,2,0.1c0.3,0,0.6,0.1,0.9,0.1C746,75.7,747,75.8,747.9,75.7z"/>
		<path class="st1" d="M739.2,70.2c-0.9-0.6-2-0.6-3-0.2c-0.3-1.2-1-2.3-1.9-3.1c0,0-0.1,0-0.1-0.1c-1-0.7-2.6-0.6-3.1,0.5
			c-0.1-0.7-0.6-1.3-1.3-1.5c-0.9-0.2-1.9,0.4-2.1,1.3c-0.1-0.1-0.1-0.2-0.2-0.3c-0.6-0.9-1.8-1-2.7-0.4c-0.9,0.6-1,1.8-0.4,2.7
			c-0.6-0.8-3.4,1.1-0.3,1.1h6.1h6.2C737.3,70.1,738.3,70.1,739.2,70.2z"/>
		<path class="st1" d="M741,65h5.8c0.4,0,1.6,0.1,1.8-0.1c0.6-0.8-1.3-0.9-1.1-0.4c-0.1-0.8-0.6-1.5-1.4-1.8c-0.8-0.3-1.7,0-2.2,0.6
			c-0.1-0.7-0.5-1.3-1.1-1.7c0,0,0,0,0,0c-1.1-0.6-2.5-0.3-3.1,0.8v-0.1c0,0,0,0,0,0c-0.4-1-1.5-1.5-2.5-1.1
			c-0.9,0.5-1.3,1.7-0.8,2.6c-0.2-0.3-2.7,0.3-0.9,1.2c0.5,0.3,1.8,0,2.5,0c0,0,0.1,0,0.1,0H741z"/>
		<path class="st1" d="M750.3,98.6c1.1,0,3.1,0.6,3.8-0.6c0.9-1.7-2.3-1.9-2.3-1c0-0.3-0.1-0.5-0.2-0.8c0,0,0,0,0,0
			c-0.5-0.9-1.6-1.3-2.5-0.8c0.2-0.5,0.2-1,0-1.5c-0.2-0.4-0.4-0.7-0.8-1c-0.4-0.3-0.9-0.4-1.5-0.4c-0.2,0-0.4,0.1-0.6,0.1
			c-0.1-0.9-0.7-1.6-1.4-2c-0.2-0.1-0.4-0.2-0.6-0.2c0,0,0,0,0,0c-0.4-0.1-0.9-0.1-1.2,0c-0.9,0.2-1.6,0.9-1.8,1.9
			c0.1-1.1-0.7-2.1-1.8-2.2s-2.1,0.7-2.2,1.8l-0.3-0.3c-1.1-0.9-2.7-0.8-3.6,0.3c-0.9,1.1-0.8,2.7,0.3,3.6c-0.8-0.3-1.7-0.1-2.3,0.5
			c-2.3,2.5,4.3,2.5,5.3,2.5h10.2L750.3,98.6C750.2,98.6,750.3,98.6,750.3,98.6z"/>
		<path class="st1" d="M821.4,84.8h5v7.1c1.8,1.2,3.6,2.4,5.3,3.6V77.4h-5.4v4.2h-5.1l-0.9-35.8l22.6,0.6l22.6-0.6l-0.8,35.8h-5.1
			v-4.2h-5.4v31c1.8,0.6,3.6,1.2,5.4,1.6V97.6h4.7l-0.2,13.1c3.1,0.3,6.3,0.1,9.4-0.7c0.1,0,0.1,0,0.2-0.1l-0.1-12.3h3.8v11.1
			c1.9-0.7,3.6-1.6,5.4-2.6V77.4h-5.4v4.2h-4.1l-0.6-36l11.4-0.3l2.9-7.5c-3.1,0.4-7,0.8-11.2,1.1l-3.1-3.1l-0.1-8.4
			c6.9-0.8,11.7-1.5,11.7-1.5l0.6-7h7.2c2.1-2.8,4-5.8,5.5-9c1.3-2.6,2.1-5.5,2.3-8.4c-7.9,5-32.3,12.6-56.9,12.6s-49-7.5-56.8-12.5
			c0.2,2.9,1,5.8,2.3,8.4c1.5,3.2,3.4,6.2,5.5,9h7.2l0.6,7c0,0,4.8,0.7,11.7,1.5l-0.1,8.4l-3.1,3.1c-4.2-0.3-8.2-0.7-11.2-1.1
			l2.8,7.4l11.4,0.3l-0.6,36h-4.1v-4.2h-5.4V81c6.3,1.3,12.4,4.2,18.3,7.8L821.4,84.8z M864.4,94.4h-4.8v-9.6h5L864.4,94.4z
			 M877.4,84.8v9.6h-3.9l-0.2-9.6H877.4z M819.8,28.1c7.2,0.7,15.6,1.3,23,1.3s15.8-0.6,23-1.3V36l-3.1,3.8
			c-8.8,0.5-16.8,0.7-19.8,0.7s-10.9-0.2-19.8-0.7L820,36L819.8,28.1z"/>
		<path class="st1" d="M622.8,36.3h3.5v12.7c0.6-0.1,1.1-0.3,1.7-0.4V36.3h3.5v11.7c0.6-0.1,1.1-0.2,1.7-0.2V36.3h3.5v11.2
			c0.2,0,0.4,0,0.6-0.1c0.4,0,0.7,0,1.1,0V36.3h1.3c4.9,0,6.8-5.1,4.6-7c0,0,0.9,2.7-3.3,2.7h-2.9l-10.8-15.2L616.5,32h-2.9
			c-4.2,0-3.3-2.7-3.3-2.7c-2.1,1.9-0.2,6.9,4.3,6.9h1.3v17.5l1.7-1V36.3h3.5v14.2c0.6-0.2,1.1-0.4,1.7-0.5V36.3z"/>
		<path class="st1" d="M514.5,86.2v1.9h3.7v-1.9h1.8v1.9h3.6v-1.9h1.8v1.9h3.6v-1.9h1.8v1.9h3.6v-1.9h1.8v1.9h3.6v-1.9h1.8v1.9h3.6
			v-1.9h1.8v1.9h3.7v-1.9h1.8v1.9h3.6v-1.9h1.8v1.9h3.6v-1.9h1.8v1.9h3.6v-1.9h1.8v1.9h2.9c0.8-0.7,1.5-1.5,2.3-2.2
			c-4.7-2.8-12.3-8.3-15.2-15.4h-0.8v1.1h-1.8v-1.1h-3.6v1.1h-1.8v-1.1H547v1.1h-1.8v-1.1h-3.6v1.1h-1.8v-1.1h-3.6v1.1h-1.8v-1.1
			h-3.6v1.1H529v-1.1h-3.6v1.1h-1.8v-1.1h-0.8c-4.3,10.7-19.2,17.6-19.2,17.6h9.1v-1.9H514.5z"/>
		<path class="st1" d="M525.4,62.5v1.7h3.6v-1.7h1.8v1.7h3.6v-1.7h1.8v1.7h3.6v-1.7h1.8v1.7h3.6v-1.7h1.8v1.7h3.7v-1.7h1.8v1.7h3.6
			v-1.7h1.8v1.7h6.1c0,0-11.9-4.3-14.5-11H532c-2.7,6.7-14.5,11-14.5,11h6.1v-1.7H525.4z"/>
		<path class="st1" d="M535.8,111.4v-5.5h-0.2c0-2.8,2.3-5.1,5.1-5.1c2.8,0,5.1,2.3,5.1,5.1v1.7c6.9-3.4,13.3-8.2,19.4-13.6h-1.9
			v1.3h-1.8V94h-3.6v1.3h-1.8V94h-3.6v1.3h-1.8V94H547v1.3h-1.8V94h-3.6v1.3h-1.8V94h-3.6v1.3h-1.8V94h-3.6v1.3H529V94h-3.6v1.3
			h-1.8V94H520v1.3h-1.8V94h-3.7v1.3h-1.8V94h-4.8l-2.4,15.5c4.7,1.6,9.4,2.7,14.4,3.2C525.5,113.2,530.8,112.7,535.8,111.4z"/>
		<polygon class="st1" points="514.5,95.3 514.5,94 514.5,88.1 514.5,86.2 512.7,86.2 512.7,88.1 512.7,94 512.7,95.3 		"/>
		<polygon class="st1" points="520,86.2 518.2,86.2 518.2,88.1 518.2,94 518.2,95.3 520,95.3 520,94 520,88.1 		"/>
		<polygon class="st1" points="525.4,86.2 523.6,86.2 523.6,88.1 523.6,94 523.6,95.3 525.4,95.3 525.4,94 525.4,88.1 		"/>
		<polygon class="st1" points="530.8,86.2 529,86.2 529,88.1 529,94 529,95.3 530.8,95.3 530.8,94 530.8,88.1 		"/>
		<polygon class="st1" points="536.2,86.2 534.4,86.2 534.4,88.1 534.4,94 534.4,95.3 536.2,95.3 536.2,94 536.2,88.1 		"/>
		<polygon class="st1" points="541.6,86.2 539.8,86.2 539.8,88.1 539.8,94 539.8,95.3 541.6,95.3 541.6,94 541.6,88.1 		"/>
		<polygon class="st1" points="547,86.2 545.2,86.2 545.2,88.1 545.2,94 545.2,95.3 547,95.3 547,94 547,88.1 		"/>
		<polygon class="st1" points="552.5,86.2 550.7,86.2 550.7,88.1 550.7,94 550.7,95.3 552.5,95.3 552.5,94 552.5,88.1 		"/>
		<polygon class="st1" points="557.9,86.2 556.1,86.2 556.1,88.1 556.1,94 556.1,95.3 557.9,95.3 557.9,94 557.9,88.1 		"/>
		<polygon class="st1" points="563.3,86.2 561.5,86.2 561.5,88.1 561.5,94 561.5,95.3 563.3,95.3 563.3,94 563.3,88.1 		"/>
		<path class="st1" d="M568.7,86.2h-1.8v1.9v4.4c0.6-0.5,1.2-1.1,1.8-1.6v-2.7V86.2z"/>
		<polygon class="st1" points="525.4,71.6 525.4,70.5 525.4,64.2 525.4,62.5 523.6,62.5 523.6,64.2 523.6,70.5 523.6,71.6 		"/>
		<polygon class="st1" points="530.8,62.5 529,62.5 529,64.2 529,70.5 529,71.6 530.8,71.6 530.8,70.5 530.8,64.2 		"/>
		<polygon class="st1" points="536.2,62.5 534.4,62.5 534.4,64.2 534.4,70.5 534.4,71.6 536.2,71.6 536.2,70.5 536.2,64.2 		"/>
		<polygon class="st1" points="541.6,62.5 539.8,62.5 539.8,64.2 539.8,70.5 539.8,71.6 541.6,71.6 541.6,70.5 541.6,64.2 		"/>
		<polygon class="st1" points="547,62.5 545.2,62.5 545.2,64.2 545.2,70.5 545.2,71.6 547,71.6 547,70.5 547,64.2 		"/>
		<polygon class="st1" points="552.5,62.5 550.7,62.5 550.7,64.2 550.7,70.5 550.7,71.6 552.5,71.6 552.5,70.5 552.5,64.2 		"/>
		<polygon class="st1" points="556.1,62.5 556.1,64.2 556.1,70.5 556.1,71.6 557.9,71.6 557.9,70.5 557.9,64.2 557.9,62.5 		"/>
		<path class="st1" d="M1041.6,136c-53.2-1.1-72.7-11.9-77.4-15.1c-0.8-0.6-1.7-1.1-2.6-1.6c-9.4-5-18.4-21.9-28.2-24.6
			c-10.6-2.9-22.2-3.4-32.3,0.8c-6.5,2.7-12.2,7.2-18.3,10.6c-1.8,1-3.5,1.9-5.4,2.6c-1.2,0.5-2.4,0.9-3.7,1.2c-0.1,0-0.1,0-0.2,0.1
			c-3.1,0.8-6.3,0.9-9.4,0.7c-1.5-0.1-3-0.4-4.5-0.7c-1.8-0.4-3.6-0.9-5.4-1.6c-7.6-2.7-14.9-7.5-21.6-12.2
			c-0.3-0.2-0.6-0.4-0.9-0.6c-1.7-1.2-3.5-2.4-5.3-3.6c-1.6-1.1-3.3-2.1-4.9-3.2c-5.8-3.6-12-6.5-18.3-7.8c-3.6-0.7-7.3-0.9-11-0.4
			C776.7,83,767,96,754.6,104.3c-0.9,0.6-1.7,1.1-2.6,1.7c-1.9,1.2-4,2.2-6.1,3c-20.5,8.1-36.8-15.2-48-28.6c-8-9.5-14-14.9-24-22.3
			c-10.3-7.4-22.8-11.2-35.5-10.7c-0.4,0-0.7,0-1.1,0c-0.2,0-0.4,0-0.6,0.1c-1.2,0.1-2.3,0.2-3.5,0.4c-0.6,0.1-1.1,0.1-1.7,0.2
			c-1.2,0.2-2.3,0.4-3.5,0.6c-0.6,0.1-1.1,0.3-1.7,0.4c-1.2,0.3-2.3,0.6-3.5,0.9c-0.6,0.2-1.1,0.3-1.7,0.5
			c-10.3,3.3-19.5,9-28.1,16.7c-6.3,5.7-12.6,12.3-19.1,18.7c-0.8,0.7-1.5,1.5-2.3,2.2c-1,0.9-1.9,1.8-2.9,2.7
			c-0.6,0.6-1.2,1.1-1.8,1.6c-0.6,0.5-1.1,1-1.7,1.5c-6.1,5.4-12.5,10.2-19.4,13.6c-3.2,1.6-6.5,2.9-10,3.8
			c-5,1.3-10.3,1.9-15.9,1.3c-5-0.5-9.7-1.6-14.4-3.2c-14.1-4.8-27.3-13.2-41.8-17.2c-28.3-7.8-77.8,13.7-92.4,44.9
			c0,0,543.2,0.1,578.2,0c0,0,108.2,0.4,107.1,0.1C1053.9,136.7,1044.4,136,1041.6,136z"/>
		<path class="st2" d="M894.4,116.5c-10.8,3.8-19.7,13.3-31.1,13.5s-20.5-9.2-31.4-12.4c-12.8-3.7-26.3,1.4-38.8,6.1
			c-15.7,6-28.8,7.9-45,3c-15.4-4.7-31-12.1-47.5-9.7c-9.6,1.4-18.5,6-27.5,9.5s-19.3,5.8-28.5,2.7c-7.3-2.5-13.1-8.2-20.2-11.1
			c-10.7-4.4-23-2.1-33.8,2.1s-20.8,10.3-31.9,13.5c-10.1,3-19.9,2.9-29.6-1.2s-18.6-10.5-29.5-11.2c-19.7-1.2-36.8,17.6-56.4,15.4
			c-12.5-1.4-22.9-11.2-35.4-12.4c-13.3-1.2-23.8,4.1-31.6,12.9h573.4c-6.9-6.6-14.2-12.8-22.7-17.2
			C916.8,115,904.9,112.8,894.4,116.5z"/>
	</g>
</g>
</svg>
