<?xml version="1.0" encoding="utf-8"?>
<!-- Generator: Adobe Illustrator 23.0.1, SVG Export Plug-In . SVG Version: 6.00 Build 0)  -->
<svg version="1.1" id="ninjaPillar" xmlns="http://www.w3.org/2000/svg" xmlns:xlink="http://www.w3.org/1999/xlink" x="0px" y="0px"
	 viewBox="0 0 292.6 776.4" style="enable-background:new 0 0 292.6 776.4;" xml:space="preserve">
<style type="text/css">
	#ninjaPillar .st0{fill:#250E41;}
	#ninjaPillar .st1{fill:#6932EA;}
	#ninjaPillar .st2{fill:#371D78;}
	#ninjaPillar .st3{fill:#3D2C70;}
	#ninjaPillar .st4{fill:#FCB416;}
	#ninjaPillar .st5{fill:#FBE0B4;}
	#ninjaPillar .st6{fill:#D2B4FF;}
	#ninjaPillar .st7{fill:#1A0C33;}
	#ninjaPillar .st8{fill:#222222;}
	#ninjaPillar .st9{fill:none;stroke:#222222;stroke-width:1.33;stroke-linecap:round;stroke-linejoin:round;}
	#ninjaPillar .st10{fill:#6A5C97;}
</style>
	<g id="ninja">
	<path class="st0" d="M219.2,454.4l-53.2-0.1c0-1.8-0.2-2-0.1-4.8l52.7-1.1c0.3,1.2,0.4,1.9,0.8,2.9
		C219.3,452.3,219.2,453.5,219.2,454.4z"/>
		<path class="st0" d="M137.9,456.1l-53.9,0c0-1.8-0.2-2-0.1-4.8l54-1.1V456.1z"/>
		<g>
		<polygon class="st1" points="197.5,900.1 88.6,899.4 83.8,451.4 219.3,451.4 		"/>
			<polygon class="st2" points="197.5,900.1 97.3,899.4 97.3,451.4 205.5,451.4 		"/>
			<path class="st1" d="M202,447.2c0,0-11.3,236.8-11.2,236s2.8-234.8,2.8-234.8L202,447.2z"/>
			<path class="st1" d="M102.1,450.2c0,0,2.8,204.7,3.6,201.7s5.5-201.7,5.5-201.7H102.1z"/>
	</g>
		<g>
		<g>
			<g>
				<g>
					<path class="st3" d="M133.3,451.4C130.3,436.7,114,315,114,315l-15.8-0.1c-1.1,34.7,4.7,80.3,14.5,112.2
						c-10.5,0.7-22.4-1.4-28.9,24.3c2.1,0.1,4.9,0,7.5,0C102.7,448,105.9,448.5,133.3,451.4z"/>
					<path class="st3" d="M137.1,451.4l0.9,0c0-30.6,6.7-83.6,10.8-113.7c-6.6,18.6-10.6,54.4-11.7,74.1
						C136.9,414.8,138,448.7,137.1,451.4z"/>
				</g>
				<g>
					<path class="st3" d="M196.8,294L196.8,294c-1.4-13.6-2.7-89.8-8.8-117.8c-0.1-0.5-0.4-1.5-0.6-2.2
						c-0.1-0.3-34.2-16.2-55.6-28.3c-5,5.7-7.4,16.9-8.1,20.4c-0.1,0.3-0.2,0.7-0.2,1c0.6,6.6-3.2,10.8-1.3,16.9
						c3.2,10.4,6.8,17.2,10.5,27.3c2.1,5.7,6.7,8.8,10.6,12.6c5.5,5.3-7.2,6-0.7,7.6c-5.9,3.3,23.8-1,17.5-1.4
						c6.2,4.7-3.8,12.3,3.8,13.9c-1.4,1.3,12.7-0.4,11.8,0.4c0,0.8-27.8,6.3-26,8.5c-2.2,0.3,7-1.2,4.8-1.4
						c2.5,2.8-1.3,8.5,1.4,10.9c-2.4,0.4-3.2,3.6-4.9,3.3c-8.8,12.6,44.5,32.4,46.3,33C197.4,298.7,196.7,294.1,196.8,294z"/>
					<path class="st0" d="M189.7,427.5c0.2-1,14.1-83.7,7.1-133.5c0,0.1-0.1,0.1-0.1,0c-0.3-2.8-0.5-4.8-0.7-5.2
						c-7.9-4.9-17.2-20.5-21.4-31.1c1.9,0.4,3.8,0.4,5.7,0c-2.8-2.6-5.5-5.4-8-8.3c2.2,0.2,4.4,0.1,6.6-0.3
						c-1.8-2.2-3.3-3.5-3.3-4.3c1.1-0.7,2.2-1.5,3.2-2.4c-7.7-1.6-12.6-7.2-18.8-11.9c6.3,0.4,12,0.4,17.9-3
						c-6.5-1.6-15.6-2.6-21.1-7.9c-4-3.8-6.5-10.5-8.6-16.2c-0.9-2.3-2.5-4.2-4.5-5.6c-2.1-1.5-4.6-2.7-7-3.7
						c-2.4-1.1-4.9-2.1-7.2-3.5c-2-1.2-4.1-2.9-5.1-5.1c-0.5-1.1-1-2.2-1.2-3.5c-0.2-1.3-0.3-2.6-0.2-3.9c0.1-2.5,0.6-4.9,0.6-7.4
						c0-2.1-0.1-4.1,0.6-6.2c0.3-0.9,0.6-1.7,0.9-2.6l0.5-1.4c0.2-0.5,0.4-1,0.6-1.5s0.4-1,0.6-1.5s0.4-1,0.6-1.5l0.6-1.5
						c0.2-0.5,0.4-1,0.6-1.5s0.4-1,0.6-1.5s0.4-1,0.6-1.5s0.4-0.9,0.6-1.4l0.6-1.3c0.2-0.4,0.3-0.8,0.5-1.2
						c21.4,12.1,55.9,28.2,56,28.5l-0.2-0.7c-2.8-7.8-9.8-23-13.8-26.8c-1.2-1.1-2.3-2.4-3.3-3.7c-1.5-2.1-2.8-4.1-5.1-4.4
						c-7.1-1.1-22.7-5.5-30.3-0.8c-0.7,1.1-1.3,2.2-1.8,3.4c-0.9,1.9-2.1,3.7-3.5,5.3c-4,4.5-8.4,17.9-10.5,23.2
						c-17,43.3-21,145.2-21,145.2h0.3c0.3,0,6.6,0,15.8,0.1l-2.3,29.7l3.6-0.3c-3.6,12.5-5.8,25.3-6.6,38.3
						c-1.2-1.4-2.3-2.9-3.3-4.4c1.2,15,5.1,33.9,8.2,48.6c-21.4,3.8-23.3,24-23.3,24l47.5,0c0,0-0.9-36.8-0.7-39.8
						c1.2-19.7,5.1-55.5,11.7-74.1c0.2,0.4,16.2,87.9,16.6,114c17.1,0.7,39.5,0.6,53.7-0.2C216.6,441,213.1,427.5,189.7,427.5z"/>
				</g>
			</g>
			<g>
				<path class="st4" d="M197.1,277.8c-61.6,5-61.6,4.9-66.9,4.4c0-0.2,0.2-2.6,0.2-2.6c-2.9-7.2-7.4-3.3-7.4-3.3
					c-2.4-0.4-3.7,0.4-4.4,1.3c-1,2.2-1.6,4.5-1.9,6.9c0,0-0.9,1.1-0.8-2.5c-10.9-1-11.9-1.2-15.5-2.1c-0.7,2-0.7,8.3-0.8,11.1
					c5.4-0.6,10.9-0.6,16.3-0.1c-4.1,7.7-12.3,22.9-16.1,38.5c0,0,3.2,2.1,5.4,9.2c0,0,3.5-6.5,1.5,3.3c0.8,2,1.4,4,1.9,6.1
					c0,0,3.4-27.7,12.5-51.1c1.3,0.8,3,0.5,4.5,0.4c1.5,5.7,3.1,16.8,4.2,29.5c1.5-3.5,3.8-6.7,6.6-9.3c0,0-3.3-9.7,2.6-2.3
					c1.4-0.6,2.8-1.1,4.2-1.5c0,0-4.3-14.5-9.8-23.8c4.8,0.1,64.2-1,64.2-1S198.2,279.9,197.1,277.8z"/>
			</g>
		</g>
			<g>
			<path class="st5" d="M192.4,215.4l-33,0.3c0-0.3,1.2-22.1-8.9-20.5c-0.5,0.1,0.3,14.2,0.3,15.3c-0.3,4.6-0.4,12-1,14.4
				c-0.7,2.5-0.3,5.2,1.2,7.4c1.5,2.4,4.1,3.9,7,4c1.7,0.1,3.4-0.6,4.5-1.9l31.4-0.1L192.4,215.4z"/>
				<path class="st6" d="M192.3,215.4l-33,0.3c0-0.3,1-24.9-9.1-23.3c-0.5,0.1,0.5,17,0.4,18.2c-0.3,4.6-0.4,12-1,14.4
				c-0.7,2.5-0.3,5.2,1.2,7.4c1.5,2.4,4.2,3.9,7,4c1.7,0.1,3.4-0.6,4.5-1.9l31.4-0.1L192.3,215.4z"/>
				<path class="st6" d="M107.3,215.8l32.6,0.6c0-0.3,0.6-23.7,9.6-23.1c0.4,0.2-1.3,16.2-1.2,17.9c0.3,4.4,0.2,11.2,0.8,13.8
				c0.8,3,0.1,6.2-1.9,8.5c-1.5,1.8-3.7,2.8-6,2.8c-1.7,0.1-3.3-0.6-4.3-1.9l-30.8-0.1L107.3,215.8z"/>
		</g>
			<g>
			<path class="st0" d="M259.9,224.2c-7.1-34.4-78.1-83.4-91.4-81.2c1.2,4.2,11.5,18,17.9,27.1c6.2,8.3,30.6,36.7,33.4,41.9
				c-5.7,2.6-42.3-1.5-43.2,1.3c-0.1,8.6-0.8,14.4-1.5,23C197.3,240.2,242.2,234.9,259.9,224.2z"/>
				<path class="st0" d="M41.8,226.4c8.8-30.4,61.9-86.4,92.5-82c0.2,0.1,2.7,0.4,0.1,1.6c1.1-0.3-1.1-2.7-2.5-1.8
				c-0.2,0.5-0.4,3-0.5,3.1c-1.3,3.3-7.1,12.8-11.2,22.3c-10.2,5.7-37.6,38.2-40.4,43.5c5.7,2.6,45-0.7,45.9,2.2
				c2.6,8.3-1.1,14.9,0.7,23.4C106.8,240.4,65.9,238.7,41.8,226.4z"/>
		</g>
			<g>
			<g>
				<path class="st7" d="M127.3,65.8c-12.1,17-33.1,15.8-51.6,13.5c-16-2.1-33.6-4.2-46.9,5.3c0.3-0.6,0.6-1.2,1-1.8
					c7.9-13.4,23.6-21.2,39.1-23.2C88.5,57.1,108.3,62.2,127.3,65.8z"/>
				<path class="st7" d="M67.4,93.2c8-9.7,17.9-20,31.7-17.1c-7.8,10.6-15.2,22.2-26,29.9c-8.6,6.2-20,9.5-30,6.5
					c-0.4-0.1-0.9-0.3-1.3-0.4C52.7,110.7,60.4,101.6,67.4,93.2z"/>
			</g>
				<g>
				<g>
					<g>
						<path class="st3" d="M207.3,88.6c-3.5-11.5-13.4-12-23.4-13.4c-10.8-1.5-21.7-2.2-32.6-2.2l0,0c-10.9,0-21.7,0.7-32.5,2.2
							c-10,1.4-19.9,1.9-23.4,13.4s3.1,20.1,13.1,23.5c12,4.1,30.8-2.9,42.9-2.9l0,0c12.1,0,30.8,7,42.9,2.9
							C204.3,108.6,210.3,100,207.3,88.6z"/>
						<path class="st6" d="M179.3,108.4c-4.9,0-10.4-1-15.8-1.9c-9.3-2.3-18.9-2.3-28.2,0c-5.3,0.9-10.9,1.9-15.8,1.9
							c-2.4,0.1-4.9-0.3-7.2-1c-6.6-2.2-12.6-7.7-9.8-16.6c2.2-7.1,7.8-8.2,16.7-9.3l1.8-0.2c9.4-1.3,18.8-1.9,28.3-1.9h0.4
							c9.5,0,18.9,0.6,28.3,1.9l1.8,0.2c8.9,1.1,14.5,2.2,16.7,9.3c2.8,8.9-3.2,14.4-9.8,16.6C184.3,108.1,181.8,108.5,179.3,108.4z
							"/>
					</g>
					<circle class="st8" cx="120.3" cy="95.4" r="3"/>
					<circle class="st8" cx="176.3" cy="94.4" r="3"/>
					<path class="st9" d="M125,84.4c-4.8-0.8-9.3-0.1-11.7,1.6"/>
					<path class="st9" d="M185.6,85.5c-2.2-1.7-6.1-2.4-10.3-1.6"/>
					<polygon class="st3" points="147.5,94.4 146.2,106.4 154.3,106.4 152.7,94.4 					"/>
				</g>
					<g>
					<path class="st10" d="M160.9,30.3c-8.7,0,34.8,63.7,47.4,64.4c1.9-9.2,1.8-18.7-0.3-27.9c-1.8-7.7-5.4-18-11.1-23.5
						C196,43.4,163.7,30.3,160.9,30.3z"/>
						<path class="st10" d="M196.6,102.2c-0.9,0.5-5.6,6.4-7.5,8.3h0.5c3.9-0.1,7.8-0.5,11.6-1.2l2.9-0.5c1.3-3,2.4-6.1,3.3-9.3
						l0.1-0.4l-10.3,3L196.6,102.2z"/>
						<path class="st3" d="M208.3,92.9c-2.7-13.8-12-22.2-24.5-26.6c5-1.1,10.1-1.7,15.2-1.8c2.1,0,4.2,0.1,6.3,0.3
						c0.6,0.1,1.2,0.1,1.8,0.2l0,0c-4.7-5-10.6-8.8-17.1-11.1c-0.5-0.2-1-0.4-1.5-0.5h0.1c2.8-0.1,5.5,0.1,8.3,0.4
						c1.5,0.2,3,0.4,4.5,0.8l1,0.2l0,0c-0.1-0.1-0.2-0.3-0.3-0.4c-0.1-0.2-0.2-0.2-0.3-0.4s-0.1-0.1-0.1-0.2
						c-2.1-3.1-7.1-10.9-7.1-10.9c0.7,0.4,1.6,0.6,2.4,0.7c-14.2-22.1-60.6-30.2-87.5-6.4c1.7-0.2,1.7,4.6,3.3,4.5
						c1.2-0.1-2.5,1.4-14.4,10.8c-2.4,12,0,13.8,21,19.6c-6.1,0.9,22.4,4.8,22.4,4.8l7.3-0.9c9.3,0,18.6,0.6,27.8,1.9
						c7.8,1.1,16.7,1.8,19.8,10.8c3.3,9.3-2.6,17.7-11,20.5c-11.5,3.9-24.2-2.1-35.8-2.3c-12.2-0.2-25.3,6.4-37.3,2.3
						c-8.5-2.9-14.1-10.2-11.2-20c0.6-2.5,1.9-4.7,3.8-6.4c-4.3,0.7-3.4,0.6-7.8,1.3c-0.6,0.1-3.8,4.9-5.5,6.9
						c0.6,4.6,1.7,9.1,3.2,13.5c6.3,4.7,12.8,44.5,84.7,31.2c10.7-6.3,19.2-15.7,24.3-27l-2.8,0.5l-1.5,0.2c-3.5,0.6-7,0.9-10.6,1
						l0,0c1.9-1.8,8.7-5.8,9.6-6.3l0,0l8.6-4.8C208.7,94.4,208.4,93.4,208.3,92.9z"/>
						<path class="st0" d="M180.3,70.9c-21.1-5.9-43.9-10.4-65.8-8.5c7.2-3,14.6-5.4,22.2-7.2c-12.2,0-25.3,0.7-37.3,3.1
						c2.5-3,17.1-8,17.1-8S103,52,99.2,52.7c17.5-8,35.8-13.9,54.7-17.6c-12-0.3-24,0.1-36,1.1h-0.1l-3.3,0.3l-5,0.6
						c-4.4,4.4-8.1,9.5-11,15l-0.2,0.4c-5.1,10.1-7.5,21.3-7,32.6c0.1,2,0.3,4,0.6,6C104.8,76.9,134.5,70.2,180.3,70.9z"/>
						<path class="st0" d="M109.1,122.1h-0.5c5.9,0.6,11.9,0.8,17.8,0.7h0.3l2.6-0.1c-3.4-0.7-6.7-1.6-10.1-2.6
						c-1.3-0.4-2.7-0.9-4-1.3c-3.3-1.2-6.6-2.5-9.7-4.1l0,0c3.9,0.3,7.9,0.5,11.8,0.4h1.7l-2.6-0.8c-7.3-2.3-15-5-21.3-9.8
						c2.2,6.2,5.4,12,9.5,17.2c0.6,0.9,1.3,1.7,2.1,2.5c3,3.4,6.4,6.4,10,9.1c5,3.7,10.5,6.7,16.4,8.7c10.6,3.6,23.8,4.3,39-2.3
						c2.7-1.1,5.2-2.4,7.7-3.9h0.1C124.9,140.4,109.1,122.2,109.1,122.1z"/>
				</g>
			</g>
		</g>
	</g>
</g>
</svg>
