<?xml version="1.0" encoding="utf-8"?>
<!-- Generator: Adobe Illustrator 23.0.1, SVG Export Plug-In . SVG Version: 6.00 Build 0)  -->
<svg version="1.1" id="welcomeScreen" xmlns="http://www.w3.org/2000/svg" xmlns:xlink="http://www.w3.org/1999/xlink" x="0px"
	 y="0px" viewBox="0 0 3273.7 1200" style="enable-background:new 0 0 3273.7 1200;" xml:space="preserve">
<style type="text/css">
	.st0{fill:#222222;}
	.st1{fill:url(#SVGID_1_);}
	.st2{fill:url(#SVGID_2_);}
	.st3{fill:url(#SVGID_3_);}
	.st4{fill:url(#SVGID_4_);}
	.st5{fill:url(#SVGID_5_);}
	.st6{fill:url(#SVGID_6_);}
	.st7{fill:url(#SVGID_7_);}
	.st8{fill:url(#SVGID_8_);}
	.st9{fill:url(#SVGID_9_);}
	.st10{fill:url(#SVGID_10_);}
	.st11{fill:url(#SVGID_11_);}
	.st12{fill:url(#SVGID_12_);}
	.st13{fill:url(#SVGID_13_);}
	.st14{fill:url(#SVGID_14_);}
	.st15{fill:url(#SVGID_15_);}
	.st16{fill:url(#SVGID_16_);}
	.st17{fill:url(#SVGID_17_);}
	.st18{fill:url(#SVGID_18_);}
	.st19{fill:url(#SVGID_19_);}
	.st20{fill:url(#SVGID_20_);}
	.st21{fill:url(#SVGID_21_);}
	.st22{fill:url(#SVGID_22_);}
	.st23{fill:url(#SVGID_23_);}
	.st24{fill:url(#SVGID_24_);}
	.st25{fill:url(#SVGID_25_);}
	.st26{fill:url(#SVGID_26_);}
	.st27{fill:url(#SVGID_27_);}
	.st28{fill:url(#SVGID_28_);}
	.st29{fill:url(#SVGID_29_);}
	.st30{fill:url(#SVGID_30_);}
	.st31{fill:url(#SVGID_31_);}
	.st32{fill:url(#SVGID_32_);}
	.st33{fill:url(#SVGID_33_);}
	.st34{fill:url(#SVGID_34_);}
	.st35{fill:url(#SVGID_35_);}
	.st36{fill:url(#SVGID_36_);}
	.st37{fill:url(#SVGID_37_);}
	.st38{fill:url(#SVGID_38_);}
	.st39{fill:url(#SVGID_39_);}
	.st40{fill:url(#SVGID_40_);}
	.st41{fill:url(#SVGID_41_);}
	.st42{opacity:0.2;fill:url(#SVGID_42_);enable-background:new    ;}
	.st43{opacity:0.2;fill:url(#SVGID_43_);enable-background:new    ;}
	.st44{opacity:0.2;fill:url(#SVGID_44_);enable-background:new    ;}
	.st45{opacity:0.2;fill:url(#SVGID_45_);enable-background:new    ;}
	.st46{opacity:0.2;fill:url(#SVGID_46_);enable-background:new    ;}
	.st47{opacity:0.2;fill:url(#SVGID_47_);enable-background:new    ;}
	.st48{opacity:5.000000e-02;fill:#FFFFFF;enable-background:new    ;}
	.st49{opacity:0.1;fill:#FFFFFF;enable-background:new    ;}
	.st50{fill:#FFFCF0;}
	.st51{fill:#D2B4FF;}
	.st52{fill:url(#welcomeBack_1_);}
	.st53{fill:#6932EA;}
	.st54{fill:#371D78;}
	.st55{fill:#3D2C70;}
	.st56{fill:#250E41;}
	.st57{fill:#FCB416;}
	.st58{fill:#FBE0B4;}
	.st59{fill:#1A0C33;}
	.st60{fill:none;stroke:#222222;stroke-width:1.33;stroke-linecap:round;stroke-linejoin:round;}
	.st61{fill:#6A5C97;}
	.st62{opacity:0.2;fill:url(#cloud_1_);enable-background:new    ;}
</style>
<title>welcomeBack</title>
<g id="welcome">
	<rect id="sky" y="0" class="st0" width="3273.7" height="1200"/>
	<g id="stars">
		
			<radialGradient id="SVGID_1_" cx="2464.8254" cy="-563.9174" r="11.24" gradientTransform="matrix(1.07 0 0 0.76 -484.6304 672.98)" gradientUnits="userSpaceOnUse">
			<stop  offset="1.000000e-02" style="stop-color:#F8F9F7"/>
			<stop  offset="0.15" style="stop-color:#F8F9F7;stop-opacity:0.78"/>
			<stop  offset="0.31" style="stop-color:#F8F9F8;stop-opacity:0.54"/>
			<stop  offset="0.47" style="stop-color:#F8F9F8;stop-opacity:0.35"/>
			<stop  offset="0.62" style="stop-color:#F8F9F9;stop-opacity:0.2"/>
			<stop  offset="0.76" style="stop-color:#F8F9F9;stop-opacity:9.000000e-02"/>
			<stop  offset="0.88" style="stop-color:#F8F9F9;stop-opacity:2.000000e-02"/>
			<stop  offset="0.98" style="stop-color:#F8F9F9;stop-opacity:0"/>
		</radialGradient>
		<ellipse class="st1" cx="2148.3" cy="246.5" rx="12" ry="8.5"/>
		
			<radialGradient id="SVGID_2_" cx="5494.3706" cy="-4391.9619" r="3.98" gradientTransform="matrix(0.71 -0.53 0.71 0.53 503.3814 5482.5825)" gradientUnits="userSpaceOnUse">
			<stop  offset="1.000000e-02" style="stop-color:#F8F9F7"/>
			<stop  offset="0.15" style="stop-color:#F8F9F7;stop-opacity:0.78"/>
			<stop  offset="0.31" style="stop-color:#F8F9F8;stop-opacity:0.54"/>
			<stop  offset="0.47" style="stop-color:#F8F9F8;stop-opacity:0.35"/>
			<stop  offset="0.62" style="stop-color:#F8F9F9;stop-opacity:0.2"/>
			<stop  offset="0.76" style="stop-color:#F8F9F9;stop-opacity:9.000000e-02"/>
			<stop  offset="0.88" style="stop-color:#F8F9F9;stop-opacity:2.000000e-02"/>
			<stop  offset="0.98" style="stop-color:#F8F9F9;stop-opacity:0"/>
		</radialGradient>
		<ellipse class="st2" cx="1286.3" cy="217" rx="4" ry="3"/>
		
			<radialGradient id="SVGID_3_" cx="4951.0308" cy="-3854.1716" r="3.98" gradientTransform="matrix(0.71 -0.53 0.71 0.53 503.3214 5474.5225)" gradientUnits="userSpaceOnUse">
			<stop  offset="1.000000e-02" style="stop-color:#F8F9F7"/>
			<stop  offset="0.15" style="stop-color:#F8F9F7;stop-opacity:0.78"/>
			<stop  offset="0.31" style="stop-color:#F8F9F8;stop-opacity:0.54"/>
			<stop  offset="0.47" style="stop-color:#F8F9F8;stop-opacity:0.35"/>
			<stop  offset="0.62" style="stop-color:#F8F9F9;stop-opacity:0.2"/>
			<stop  offset="0.76" style="stop-color:#F8F9F9;stop-opacity:9.000000e-02"/>
			<stop  offset="0.88" style="stop-color:#F8F9F9;stop-opacity:2.000000e-02"/>
			<stop  offset="0.98" style="stop-color:#F8F9F9;stop-opacity:0"/>
		</radialGradient>
		<ellipse class="st3" cx="1282.3" cy="785" rx="4" ry="3"/>
		
			<radialGradient id="SVGID_4_" cx="1120.714" cy="24.2789" r="4.88" gradientTransform="matrix(1.06 0 0 0.74 -432.8902 626.1099)" gradientUnits="userSpaceOnUse">
			<stop  offset="1.000000e-02" style="stop-color:#F8F9F7"/>
			<stop  offset="0.15" style="stop-color:#F8F9F7;stop-opacity:0.78"/>
			<stop  offset="0.31" style="stop-color:#F8F9F8;stop-opacity:0.54"/>
			<stop  offset="0.47" style="stop-color:#F8F9F8;stop-opacity:0.35"/>
			<stop  offset="0.62" style="stop-color:#F8F9F9;stop-opacity:0.2"/>
			<stop  offset="0.76" style="stop-color:#F8F9F9;stop-opacity:9.000000e-02"/>
			<stop  offset="0.88" style="stop-color:#F8F9F9;stop-opacity:2.000000e-02"/>
			<stop  offset="0.98" style="stop-color:#F8F9F9;stop-opacity:0"/>
		</radialGradient>
		<path class="st4" d="M760.9,644.2c0,2-2.3,3.6-5.2,3.6s-5.2-1.6-5.2-3.6s2.3-3.6,5.2-3.6C758.5,640.5,760.9,642.2,760.9,644.2z"/>
		
			<radialGradient id="SVGID_5_" cx="2421.2041" cy="-618.1011" r="4.88" gradientTransform="matrix(1.06 0 0 0.74 -432.8902 626.1099)" gradientUnits="userSpaceOnUse">
			<stop  offset="1.000000e-02" style="stop-color:#F8F9F7"/>
			<stop  offset="0.15" style="stop-color:#F8F9F7;stop-opacity:0.78"/>
			<stop  offset="0.31" style="stop-color:#F8F9F8;stop-opacity:0.54"/>
			<stop  offset="0.47" style="stop-color:#F8F9F8;stop-opacity:0.35"/>
			<stop  offset="0.62" style="stop-color:#F8F9F9;stop-opacity:0.2"/>
			<stop  offset="0.76" style="stop-color:#F8F9F9;stop-opacity:9.000000e-02"/>
			<stop  offset="0.88" style="stop-color:#F8F9F9;stop-opacity:2.000000e-02"/>
			<stop  offset="0.98" style="stop-color:#F8F9F9;stop-opacity:0"/>
		</radialGradient>
		<path class="st5" d="M2141.3,167.6c0,2-2.3,3.6-5.2,3.6c-2.9,0-5.2-1.6-5.2-3.6s2.3-3.6,5.2-3.6S2141.3,165.6,2141.3,167.6z"/>
		
			<radialGradient id="SVGID_6_" cx="2769.1641" cy="192.3689" r="4.88" gradientTransform="matrix(1.06 0 0 0.74 -432.8902 626.1099)" gradientUnits="userSpaceOnUse">
			<stop  offset="1.000000e-02" style="stop-color:#F8F9F7"/>
			<stop  offset="0.15" style="stop-color:#F8F9F7;stop-opacity:0.78"/>
			<stop  offset="0.31" style="stop-color:#F8F9F8;stop-opacity:0.54"/>
			<stop  offset="0.47" style="stop-color:#F8F9F8;stop-opacity:0.35"/>
			<stop  offset="0.62" style="stop-color:#F8F9F9;stop-opacity:0.2"/>
			<stop  offset="0.76" style="stop-color:#F8F9F9;stop-opacity:9.000000e-02"/>
			<stop  offset="0.88" style="stop-color:#F8F9F9;stop-opacity:2.000000e-02"/>
			<stop  offset="0.98" style="stop-color:#F8F9F9;stop-opacity:0"/>
		</radialGradient>
		<path class="st6" d="M2510.6,768.8c0,2-2.3,3.6-5.2,3.6s-5.2-1.6-5.2-3.6s2.3-3.6,5.2-3.6C2508.2,765.2,2510.6,766.8,2510.6,768.8
			z"/>
		
			<radialGradient id="SVGID_7_" cx="2189.064" cy="-612.2311" r="5.87" gradientTransform="matrix(1.06 0 0 0.74 -432.8902 626.1099)" gradientUnits="userSpaceOnUse">
			<stop  offset="1.000000e-02" style="stop-color:#F8F9F7"/>
			<stop  offset="0.15" style="stop-color:#F8F9F7;stop-opacity:0.78"/>
			<stop  offset="0.31" style="stop-color:#F8F9F8;stop-opacity:0.54"/>
			<stop  offset="0.47" style="stop-color:#F8F9F8;stop-opacity:0.35"/>
			<stop  offset="0.62" style="stop-color:#F8F9F9;stop-opacity:0.2"/>
			<stop  offset="0.76" style="stop-color:#F8F9F9;stop-opacity:9.000000e-02"/>
			<stop  offset="0.88" style="stop-color:#F8F9F9;stop-opacity:2.000000e-02"/>
			<stop  offset="0.98" style="stop-color:#F8F9F9;stop-opacity:0"/>
		</radialGradient>
		<path class="st7" d="M1895.9,172c0,2.4-2.8,4.4-6.2,4.4s-6.2-2-6.2-4.4s2.8-4.4,6.2-4.4S1895.9,169.6,1895.9,172z"/>
		
			<radialGradient id="SVGID_8_" cx="1092.174" cy="-260.2111" r="5.87" gradientTransform="matrix(1.06 0 0 0.74 -432.8902 626.1099)" gradientUnits="userSpaceOnUse">
			<stop  offset="1.000000e-02" style="stop-color:#F8F9F7"/>
			<stop  offset="0.15" style="stop-color:#F8F9F7;stop-opacity:0.78"/>
			<stop  offset="0.31" style="stop-color:#F8F9F8;stop-opacity:0.54"/>
			<stop  offset="0.47" style="stop-color:#F8F9F8;stop-opacity:0.35"/>
			<stop  offset="0.62" style="stop-color:#F8F9F9;stop-opacity:0.2"/>
			<stop  offset="0.76" style="stop-color:#F8F9F9;stop-opacity:9.000000e-02"/>
			<stop  offset="0.88" style="stop-color:#F8F9F9;stop-opacity:2.000000e-02"/>
			<stop  offset="0.98" style="stop-color:#F8F9F9;stop-opacity:0"/>
		</radialGradient>
		<path class="st8" d="M731.6,433.1c0,2.4-2.8,4.4-6.2,4.4s-6.2-2-6.2-4.4s2.8-4.4,6.2-4.4S731.6,430.7,731.6,433.1z"/>
		
			<radialGradient id="SVGID_9_" cx="1393.304" cy="-596.191" r="5.87" gradientTransform="matrix(1.06 0 0 0.74 -432.8902 626.1099)" gradientUnits="userSpaceOnUse">
			<stop  offset="1.000000e-02" style="stop-color:#F8F9F7"/>
			<stop  offset="0.15" style="stop-color:#F8F9F7;stop-opacity:0.78"/>
			<stop  offset="0.31" style="stop-color:#F8F9F8;stop-opacity:0.54"/>
			<stop  offset="0.47" style="stop-color:#F8F9F8;stop-opacity:0.35"/>
			<stop  offset="0.62" style="stop-color:#F8F9F9;stop-opacity:0.2"/>
			<stop  offset="0.76" style="stop-color:#F8F9F9;stop-opacity:9.000000e-02"/>
			<stop  offset="0.88" style="stop-color:#F8F9F9;stop-opacity:2.000000e-02"/>
			<stop  offset="0.98" style="stop-color:#F8F9F9;stop-opacity:0"/>
		</radialGradient>
		<path class="st9" d="M1051.3,183.9c0,2.4-2.8,4.4-6.2,4.4c-3.4,0-6.2-1.9-6.2-4.4s2.8-4.4,6.2-4.4
			C1048.5,179.5,1051.3,181.5,1051.3,183.9z"/>
		
			<radialGradient id="SVGID_10_" cx="2820.2041" cy="-324.1911" r="8.8" gradientTransform="matrix(1.06 0 0 0.74 -432.8902 626.1099)" gradientUnits="userSpaceOnUse">
			<stop  offset="1.000000e-02" style="stop-color:#F8F9F7"/>
			<stop  offset="0.15" style="stop-color:#F8F9F7;stop-opacity:0.78"/>
			<stop  offset="0.31" style="stop-color:#F8F9F8;stop-opacity:0.54"/>
			<stop  offset="0.47" style="stop-color:#F8F9F8;stop-opacity:0.35"/>
			<stop  offset="0.62" style="stop-color:#F8F9F9;stop-opacity:0.2"/>
			<stop  offset="0.76" style="stop-color:#F8F9F9;stop-opacity:9.000000e-02"/>
			<stop  offset="0.88" style="stop-color:#F8F9F9;stop-opacity:2.000000e-02"/>
			<stop  offset="0.98" style="stop-color:#F8F9F9;stop-opacity:0"/>
		</radialGradient>
		<path class="st10" d="M2568.9,385.7c0,3.6-4.2,6.5-9.3,6.5s-9.3-2.9-9.3-6.5s4.2-6.5,9.3-6.5
			C2564.7,379.1,2568.9,382,2568.9,385.7z"/>
		
			<radialGradient id="SVGID_11_" cx="1227.064" cy="-52.7311" r="5.87" gradientTransform="matrix(1.06 0 0 0.74 -432.8902 626.1099)" gradientUnits="userSpaceOnUse">
			<stop  offset="1.000000e-02" style="stop-color:#F8F9F7"/>
			<stop  offset="0.15" style="stop-color:#F8F9F7;stop-opacity:0.78"/>
			<stop  offset="0.31" style="stop-color:#F8F9F8;stop-opacity:0.54"/>
			<stop  offset="0.47" style="stop-color:#F8F9F8;stop-opacity:0.35"/>
			<stop  offset="0.62" style="stop-color:#F8F9F9;stop-opacity:0.2"/>
			<stop  offset="0.76" style="stop-color:#F8F9F9;stop-opacity:9.000000e-02"/>
			<stop  offset="0.88" style="stop-color:#F8F9F9;stop-opacity:2.000000e-02"/>
			<stop  offset="0.98" style="stop-color:#F8F9F9;stop-opacity:0"/>
		</radialGradient>
		<path class="st11" d="M874.8,587c0,2.4-2.8,4.3-6.2,4.3s-6.2-2-6.2-4.3s2.8-4.4,6.2-4.4S874.8,584.6,874.8,587z"/>
		
			<radialGradient id="SVGID_12_" cx="2739.844" cy="-191.9711" r="5.87" gradientTransform="matrix(1.06 0 0 0.74 -432.8902 626.1099)" gradientUnits="userSpaceOnUse">
			<stop  offset="1.000000e-02" style="stop-color:#F8F9F7"/>
			<stop  offset="0.15" style="stop-color:#F8F9F7;stop-opacity:0.78"/>
			<stop  offset="0.31" style="stop-color:#F8F9F8;stop-opacity:0.54"/>
			<stop  offset="0.47" style="stop-color:#F8F9F8;stop-opacity:0.35"/>
			<stop  offset="0.62" style="stop-color:#F8F9F9;stop-opacity:0.2"/>
			<stop  offset="0.76" style="stop-color:#F8F9F9;stop-opacity:9.000000e-02"/>
			<stop  offset="0.88" style="stop-color:#F8F9F9;stop-opacity:2.000000e-02"/>
			<stop  offset="0.98" style="stop-color:#F8F9F9;stop-opacity:0"/>
		</radialGradient>
		<path class="st12" d="M2480.5,483.7c0,2.4-2.8,4.4-6.2,4.4s-6.2-2-6.2-4.4s2.8-4.4,6.2-4.4S2480.5,481.3,2480.5,483.7z"/>
		
			<radialGradient id="SVGID_13_" cx="2452.894" cy="405.0889" r="5.87" gradientTransform="matrix(1.06 0 0 0.74 -432.8902 626.1099)" gradientUnits="userSpaceOnUse">
			<stop  offset="1.000000e-02" style="stop-color:#F8F9F7"/>
			<stop  offset="0.15" style="stop-color:#F8F9F7;stop-opacity:0.78"/>
			<stop  offset="0.31" style="stop-color:#F8F9F8;stop-opacity:0.54"/>
			<stop  offset="0.47" style="stop-color:#F8F9F8;stop-opacity:0.35"/>
			<stop  offset="0.62" style="stop-color:#F8F9F9;stop-opacity:0.2"/>
			<stop  offset="0.76" style="stop-color:#F8F9F9;stop-opacity:9.000000e-02"/>
			<stop  offset="0.88" style="stop-color:#F8F9F9;stop-opacity:2.000000e-02"/>
			<stop  offset="0.98" style="stop-color:#F8F9F9;stop-opacity:0"/>
		</radialGradient>
		<path class="st13" d="M2175.9,926.7c0,2.4-2.8,4.3-6.2,4.3s-6.2-2-6.2-4.3s2.8-4.4,6.2-4.4S2175.9,924.2,2175.9,926.7z"/>
		
			<radialGradient id="SVGID_14_" cx="2680.874" cy="-442.0911" r="5.87" gradientTransform="matrix(1.06 0 0 0.74 -432.8902 626.1099)" gradientUnits="userSpaceOnUse">
			<stop  offset="1.000000e-02" style="stop-color:#F8F9F7"/>
			<stop  offset="0.15" style="stop-color:#F8F9F7;stop-opacity:0.78"/>
			<stop  offset="0.31" style="stop-color:#F8F9F8;stop-opacity:0.54"/>
			<stop  offset="0.47" style="stop-color:#F8F9F8;stop-opacity:0.35"/>
			<stop  offset="0.62" style="stop-color:#F8F9F9;stop-opacity:0.2"/>
			<stop  offset="0.76" style="stop-color:#F8F9F9;stop-opacity:9.000000e-02"/>
			<stop  offset="0.88" style="stop-color:#F8F9F9;stop-opacity:2.000000e-02"/>
			<stop  offset="0.98" style="stop-color:#F8F9F9;stop-opacity:0"/>
		</radialGradient>
		<path class="st14" d="M2417.9,298.2c0,2.4-2.8,4.4-6.2,4.4s-6.2-2-6.2-4.4s2.8-4.4,6.2-4.4S2417.9,295.8,2417.9,298.2z"/>
		
			<radialGradient id="SVGID_15_" cx="1641.2416" cy="-581.5652" r="5.87" gradientTransform="matrix(1.02 0 0 0.68 -138.0001 617.3)" gradientUnits="userSpaceOnUse">
			<stop  offset="1.000000e-02" style="stop-color:#F8F9F7"/>
			<stop  offset="0.15" style="stop-color:#F8F9F7;stop-opacity:0.78"/>
			<stop  offset="0.31" style="stop-color:#F8F9F8;stop-opacity:0.54"/>
			<stop  offset="0.47" style="stop-color:#F8F9F8;stop-opacity:0.35"/>
			<stop  offset="0.62" style="stop-color:#F8F9F9;stop-opacity:0.2"/>
			<stop  offset="0.76" style="stop-color:#F8F9F9;stop-opacity:9.000000e-02"/>
			<stop  offset="0.88" style="stop-color:#F8F9F9;stop-opacity:2.000000e-02"/>
			<stop  offset="0.98" style="stop-color:#F8F9F9;stop-opacity:0"/>
		</radialGradient>
		<ellipse class="st15" cx="1538.3" cy="221" rx="6" ry="4"/>
		
			<radialGradient id="SVGID_16_" cx="1223.6116" cy="-513.8052" r="5.87" gradientTransform="matrix(1.02 0 0 0.68 -155.0601 621.1199)" gradientUnits="userSpaceOnUse">
			<stop  offset="1.000000e-02" style="stop-color:#F8F9F7"/>
			<stop  offset="0.15" style="stop-color:#F8F9F7;stop-opacity:0.78"/>
			<stop  offset="0.31" style="stop-color:#F8F9F8;stop-opacity:0.54"/>
			<stop  offset="0.47" style="stop-color:#F8F9F8;stop-opacity:0.35"/>
			<stop  offset="0.62" style="stop-color:#F8F9F9;stop-opacity:0.2"/>
			<stop  offset="0.76" style="stop-color:#F8F9F9;stop-opacity:9.000000e-02"/>
			<stop  offset="0.88" style="stop-color:#F8F9F9;stop-opacity:2.000000e-02"/>
			<stop  offset="0.98" style="stop-color:#F8F9F9;stop-opacity:0"/>
		</radialGradient>
		<ellipse class="st16" cx="1094.3" cy="271" rx="6" ry="4"/>
		
			<radialGradient id="SVGID_17_" cx="1126.584" cy="-423.401" r="5.87" gradientTransform="matrix(1.06 0 0 0.74 -432.8902 626.1099)" gradientUnits="userSpaceOnUse">
			<stop  offset="1.000000e-02" style="stop-color:#F8F9F7"/>
			<stop  offset="0.15" style="stop-color:#F8F9F7;stop-opacity:0.78"/>
			<stop  offset="0.31" style="stop-color:#F8F9F8;stop-opacity:0.54"/>
			<stop  offset="0.47" style="stop-color:#F8F9F8;stop-opacity:0.35"/>
			<stop  offset="0.62" style="stop-color:#F8F9F9;stop-opacity:0.2"/>
			<stop  offset="0.76" style="stop-color:#F8F9F9;stop-opacity:9.000000e-02"/>
			<stop  offset="0.88" style="stop-color:#F8F9F9;stop-opacity:2.000000e-02"/>
			<stop  offset="0.98" style="stop-color:#F8F9F9;stop-opacity:0"/>
		</radialGradient>
		<path class="st17" d="M768.1,312.1c0,2.4-2.8,4.4-6.2,4.4s-6.2-2-6.2-4.4s2.8-4.4,6.2-4.4S768.1,309.6,768.1,312.1z"/>
		
			<radialGradient id="SVGID_18_" cx="3082.4583" cy="-280.0219" r="5.87" gradientTransform="matrix(1.06 0 0 0.74 -432.8902 626.1099)" gradientUnits="userSpaceOnUse">
			<stop  offset="1.000000e-02" style="stop-color:#F8F9F7"/>
			<stop  offset="0.15" style="stop-color:#F8F9F7;stop-opacity:0.78"/>
			<stop  offset="0.31" style="stop-color:#F8F9F8;stop-opacity:0.54"/>
			<stop  offset="0.47" style="stop-color:#F8F9F8;stop-opacity:0.35"/>
			<stop  offset="0.62" style="stop-color:#F8F9F9;stop-opacity:0.2"/>
			<stop  offset="0.76" style="stop-color:#F8F9F9;stop-opacity:9.000000e-02"/>
			<stop  offset="0.88" style="stop-color:#F8F9F9;stop-opacity:2.000000e-02"/>
			<stop  offset="0.98" style="stop-color:#F8F9F9;stop-opacity:0"/>
		</radialGradient>
		<path class="st18" d="M2841.3,418.5c0,2.4-2.8,4.4-6.2,4.4s-6.2-2-6.2-4.4s2.8-4.4,6.2-4.4S2841.3,416,2841.3,418.5z"/>
		
			<radialGradient id="SVGID_19_" cx="3383.5884" cy="-616.0019" r="5.87" gradientTransform="matrix(1.06 0 0 0.74 -432.8902 626.1099)" gradientUnits="userSpaceOnUse">
			<stop  offset="1.000000e-02" style="stop-color:#F8F9F7"/>
			<stop  offset="0.15" style="stop-color:#F8F9F7;stop-opacity:0.78"/>
			<stop  offset="0.31" style="stop-color:#F8F9F8;stop-opacity:0.54"/>
			<stop  offset="0.47" style="stop-color:#F8F9F8;stop-opacity:0.35"/>
			<stop  offset="0.62" style="stop-color:#F8F9F9;stop-opacity:0.2"/>
			<stop  offset="0.76" style="stop-color:#F8F9F9;stop-opacity:9.000000e-02"/>
			<stop  offset="0.88" style="stop-color:#F8F9F9;stop-opacity:2.000000e-02"/>
			<stop  offset="0.98" style="stop-color:#F8F9F9;stop-opacity:0"/>
		</radialGradient>
		<path class="st19" d="M3161,169.2c0,2.4-2.8,4.4-6.2,4.4c-3.4,0-6.2-1.9-6.2-4.4s2.8-4.4,6.2-4.4
			C3158.2,164.9,3161,166.8,3161,169.2z"/>
		
			<radialGradient id="SVGID_20_" cx="3291.9463" cy="-535.3641" r="5.87" gradientTransform="matrix(1.02 0 0 0.68 -155.0601 621.1199)" gradientUnits="userSpaceOnUse">
			<stop  offset="1.000000e-02" style="stop-color:#F8F9F7"/>
			<stop  offset="0.15" style="stop-color:#F8F9F7;stop-opacity:0.78"/>
			<stop  offset="0.31" style="stop-color:#F8F9F8;stop-opacity:0.54"/>
			<stop  offset="0.47" style="stop-color:#F8F9F8;stop-opacity:0.35"/>
			<stop  offset="0.62" style="stop-color:#F8F9F9;stop-opacity:0.2"/>
			<stop  offset="0.76" style="stop-color:#F8F9F9;stop-opacity:9.000000e-02"/>
			<stop  offset="0.88" style="stop-color:#F8F9F9;stop-opacity:2.000000e-02"/>
			<stop  offset="0.98" style="stop-color:#F8F9F9;stop-opacity:0"/>
		</radialGradient>
		<ellipse class="st20" cx="3204" cy="256.3" rx="6" ry="4"/>
		
			<radialGradient id="SVGID_21_" cx="3116.8684" cy="-443.2119" r="5.87" gradientTransform="matrix(1.06 0 0 0.74 -432.8902 626.1099)" gradientUnits="userSpaceOnUse">
			<stop  offset="1.000000e-02" style="stop-color:#F8F9F7"/>
			<stop  offset="0.15" style="stop-color:#F8F9F7;stop-opacity:0.78"/>
			<stop  offset="0.31" style="stop-color:#F8F9F8;stop-opacity:0.54"/>
			<stop  offset="0.47" style="stop-color:#F8F9F8;stop-opacity:0.35"/>
			<stop  offset="0.62" style="stop-color:#F8F9F9;stop-opacity:0.2"/>
			<stop  offset="0.76" style="stop-color:#F8F9F9;stop-opacity:9.000000e-02"/>
			<stop  offset="0.88" style="stop-color:#F8F9F9;stop-opacity:2.000000e-02"/>
			<stop  offset="0.98" style="stop-color:#F8F9F9;stop-opacity:0"/>
		</radialGradient>
		<path class="st21" d="M2877.8,297.4c0,2.4-2.8,4.4-6.2,4.4s-6.2-2-6.2-4.4s2.8-4.4,6.2-4.4S2877.8,295,2877.8,297.4z"/>
		
			<radialGradient id="SVGID_22_" cx="2961.8181" cy="-33.1211" r="5.87" gradientTransform="matrix(1.06 0 0 0.74 -432.8902 626.1099)" gradientUnits="userSpaceOnUse">
			<stop  offset="1.000000e-02" style="stop-color:#F8F9F7"/>
			<stop  offset="0.15" style="stop-color:#F8F9F7;stop-opacity:0.78"/>
			<stop  offset="0.31" style="stop-color:#F8F9F8;stop-opacity:0.54"/>
			<stop  offset="0.47" style="stop-color:#F8F9F8;stop-opacity:0.35"/>
			<stop  offset="0.62" style="stop-color:#F8F9F9;stop-opacity:0.2"/>
			<stop  offset="0.76" style="stop-color:#F8F9F9;stop-opacity:9.000000e-02"/>
			<stop  offset="0.88" style="stop-color:#F8F9F9;stop-opacity:2.000000e-02"/>
			<stop  offset="0.98" style="stop-color:#F8F9F9;stop-opacity:0"/>
		</radialGradient>
		<path class="st22" d="M2713.9,600.6c0,2.4-2.8,4.3-6.2,4.3s-6.2-1.9-6.2-4.3s2.8-4.4,6.2-4.4S2713.9,598.1,2713.9,600.6z"/>
		
			<radialGradient id="SVGID_23_" cx="2853.6362" cy="98.9474" r="5.87" gradientTransform="matrix(1.02 0 0 0.68 -155.0601 621.1199)" gradientUnits="userSpaceOnUse">
			<stop  offset="1.000000e-02" style="stop-color:#F8F9F7"/>
			<stop  offset="0.15" style="stop-color:#F8F9F7;stop-opacity:0.78"/>
			<stop  offset="0.31" style="stop-color:#F8F9F8;stop-opacity:0.54"/>
			<stop  offset="0.47" style="stop-color:#F8F9F8;stop-opacity:0.35"/>
			<stop  offset="0.62" style="stop-color:#F8F9F9;stop-opacity:0.2"/>
			<stop  offset="0.76" style="stop-color:#F8F9F9;stop-opacity:9.000000e-02"/>
			<stop  offset="0.88" style="stop-color:#F8F9F9;stop-opacity:2.000000e-02"/>
			<stop  offset="0.98" style="stop-color:#F8F9F9;stop-opacity:0"/>
		</radialGradient>
		<ellipse class="st23" cx="2756.9" cy="687.7" rx="6" ry="4"/>
		
			<radialGradient id="SVGID_24_" cx="2695.0981" cy="139.669" r="5.87" gradientTransform="matrix(1.06 0 0 0.74 -432.8902 626.1099)" gradientUnits="userSpaceOnUse">
			<stop  offset="1.000000e-02" style="stop-color:#F8F9F7"/>
			<stop  offset="0.15" style="stop-color:#F8F9F7;stop-opacity:0.78"/>
			<stop  offset="0.31" style="stop-color:#F8F9F8;stop-opacity:0.54"/>
			<stop  offset="0.47" style="stop-color:#F8F9F8;stop-opacity:0.35"/>
			<stop  offset="0.62" style="stop-color:#F8F9F9;stop-opacity:0.2"/>
			<stop  offset="0.76" style="stop-color:#F8F9F9;stop-opacity:9.000000e-02"/>
			<stop  offset="0.88" style="stop-color:#F8F9F9;stop-opacity:2.000000e-02"/>
			<stop  offset="0.98" style="stop-color:#F8F9F9;stop-opacity:0"/>
		</radialGradient>
		<path class="st24" d="M2430.8,728.7c0,2.4-2.8,4.3-6.2,4.3c-3.4,0-6.2-2-6.2-4.3c0-2.4,2.8-4.4,6.2-4.4
			C2428,724.4,2430.8,726.3,2430.8,728.7z"/>
		
			<radialGradient id="SVGID_25_" cx="2843.584" cy="-93.781" r="5.87" gradientTransform="matrix(1.06 0 0 0.74 -432.8902 626.1099)" gradientUnits="userSpaceOnUse">
			<stop  offset="1.000000e-02" style="stop-color:#F8F9F7"/>
			<stop  offset="0.15" style="stop-color:#F8F9F7;stop-opacity:0.78"/>
			<stop  offset="0.31" style="stop-color:#F8F9F8;stop-opacity:0.54"/>
			<stop  offset="0.47" style="stop-color:#F8F9F8;stop-opacity:0.35"/>
			<stop  offset="0.62" style="stop-color:#F8F9F9;stop-opacity:0.2"/>
			<stop  offset="0.76" style="stop-color:#F8F9F9;stop-opacity:9.000000e-02"/>
			<stop  offset="0.88" style="stop-color:#F8F9F9;stop-opacity:2.000000e-02"/>
			<stop  offset="0.98" style="stop-color:#F8F9F9;stop-opacity:0"/>
		</radialGradient>
		<path class="st25" d="M2590.6,556.6c0,2.4-2.8,4.4-6.2,4.4s-6.2-2-6.2-4.4s2.8-4.3,6.2-4.3S2590.6,554.2,2590.6,556.6z"/>
		
			<radialGradient id="SVGID_26_" cx="641.4338" cy="-579.0977" r="8.8" gradientTransform="matrix(0.4946 0.9375 -0.6545 0.3453 -348.3569 -245.608)" gradientUnits="userSpaceOnUse">
			<stop  offset="1.000000e-02" style="stop-color:#F8F9F7"/>
			<stop  offset="0.15" style="stop-color:#F8F9F7;stop-opacity:0.78"/>
			<stop  offset="0.31" style="stop-color:#F8F9F8;stop-opacity:0.54"/>
			<stop  offset="0.47" style="stop-color:#F8F9F8;stop-opacity:0.35"/>
			<stop  offset="0.62" style="stop-color:#F8F9F9;stop-opacity:0.2"/>
			<stop  offset="0.76" style="stop-color:#F8F9F9;stop-opacity:9.000000e-02"/>
			<stop  offset="0.88" style="stop-color:#F8F9F9;stop-opacity:2.000000e-02"/>
			<stop  offset="0.98" style="stop-color:#F8F9F9;stop-opacity:0"/>
		</radialGradient>
		<path class="st26" d="M354.2,166.5c-3.2,1.7-7.7-0.6-10.1-5.2c-2.4-4.6-1.8-9.6,1.4-11.3c3.2-1.7,7.7,0.7,10.1,5.2
			C358,159.7,357.4,164.8,354.2,166.5z"/>
		
			<radialGradient id="SVGID_27_" cx="561.0737" cy="-446.8777" r="5.87" gradientTransform="matrix(0.4946 0.9375 -0.6545 0.3453 -348.3569 -245.608)" gradientUnits="userSpaceOnUse">
			<stop  offset="1.000000e-02" style="stop-color:#F8F9F7"/>
			<stop  offset="0.15" style="stop-color:#F8F9F7;stop-opacity:0.78"/>
			<stop  offset="0.31" style="stop-color:#F8F9F8;stop-opacity:0.54"/>
			<stop  offset="0.47" style="stop-color:#F8F9F8;stop-opacity:0.35"/>
			<stop  offset="0.62" style="stop-color:#F8F9F9;stop-opacity:0.2"/>
			<stop  offset="0.76" style="stop-color:#F8F9F9;stop-opacity:9.000000e-02"/>
			<stop  offset="0.88" style="stop-color:#F8F9F9;stop-opacity:2.000000e-02"/>
			<stop  offset="0.98" style="stop-color:#F8F9F9;stop-opacity:0"/>
		</radialGradient>
		<path class="st27" d="M226.2,134c-2.1,1.1-5.1-0.4-6.8-3.5c-1.6-3-1.2-6.4,0.9-7.5s5.2,0.4,6.8,3.5
			C228.7,129.5,228.3,132.9,226.2,134z"/>
		
			<radialGradient id="SVGID_28_" cx="2314.3994" cy="-3509.5054" r="5.87" gradientTransform="matrix(0.4946 0.9375 -0.6545 0.3453 -348.3569 -245.608)" gradientUnits="userSpaceOnUse">
			<stop  offset="1.000000e-02" style="stop-color:#F8F9F7"/>
			<stop  offset="0.15" style="stop-color:#F8F9F7;stop-opacity:0.78"/>
			<stop  offset="0.31" style="stop-color:#F8F9F8;stop-opacity:0.54"/>
			<stop  offset="0.47" style="stop-color:#F8F9F8;stop-opacity:0.35"/>
			<stop  offset="0.62" style="stop-color:#F8F9F9;stop-opacity:0.2"/>
			<stop  offset="0.76" style="stop-color:#F8F9F9;stop-opacity:9.000000e-02"/>
			<stop  offset="0.88" style="stop-color:#F8F9F9;stop-opacity:2.000000e-02"/>
			<stop  offset="0.98" style="stop-color:#F8F9F9;stop-opacity:0"/>
		</radialGradient>
		<path class="st28" d="M3098.3,719.9c-2.1,1.1-5.2-0.4-6.8-3.5c-1.6-3-1.2-6.4,0.9-7.5c2.1-1.1,5.1,0.4,6.8,3.5
			S3100.4,718.8,3098.3,719.9z"/>
		
			<radialGradient id="SVGID_29_" cx="903.688" cy="-534.9285" r="5.87" gradientTransform="matrix(0.4946 0.9375 -0.6545 0.3453 -348.3569 -245.608)" gradientUnits="userSpaceOnUse">
			<stop  offset="1.000000e-02" style="stop-color:#F8F9F7"/>
			<stop  offset="0.15" style="stop-color:#F8F9F7;stop-opacity:0.78"/>
			<stop  offset="0.31" style="stop-color:#F8F9F8;stop-opacity:0.54"/>
			<stop  offset="0.47" style="stop-color:#F8F9F8;stop-opacity:0.35"/>
			<stop  offset="0.62" style="stop-color:#F8F9F9;stop-opacity:0.2"/>
			<stop  offset="0.76" style="stop-color:#F8F9F9;stop-opacity:9.000000e-02"/>
			<stop  offset="0.88" style="stop-color:#F8F9F9;stop-opacity:2.000000e-02"/>
			<stop  offset="0.98" style="stop-color:#F8F9F9;stop-opacity:0"/>
		</radialGradient>
		<path class="st29" d="M452.3,422.7c-2.1,1.1-5.1-0.4-6.7-3.5c-1.6-3-1.1-6.4,0.9-7.5c2.1-1.1,5.2,0.4,6.8,3.5
			C454.9,418.2,454.4,421.6,452.3,422.7z"/>
		
			<radialGradient id="SVGID_30_" cx="938.0981" cy="-698.1185" r="5.87" gradientTransform="matrix(0.4946 0.9375 -0.6545 0.3453 -348.3569 -245.608)" gradientUnits="userSpaceOnUse">
			<stop  offset="1.000000e-02" style="stop-color:#F8F9F7"/>
			<stop  offset="0.15" style="stop-color:#F8F9F7;stop-opacity:0.78"/>
			<stop  offset="0.31" style="stop-color:#F8F9F8;stop-opacity:0.54"/>
			<stop  offset="0.47" style="stop-color:#F8F9F8;stop-opacity:0.35"/>
			<stop  offset="0.62" style="stop-color:#F8F9F9;stop-opacity:0.2"/>
			<stop  offset="0.76" style="stop-color:#F8F9F9;stop-opacity:9.000000e-02"/>
			<stop  offset="0.88" style="stop-color:#F8F9F9;stop-opacity:2.000000e-02"/>
			<stop  offset="0.98" style="stop-color:#F8F9F9;stop-opacity:0"/>
		</radialGradient>
		<path class="st30" d="M576.4,398.5c-2.1,1.1-5.1-0.4-6.8-3.5s-1.1-6.4,0.9-7.5c2.1-1.1,5.2,0.4,6.8,3.5
			C579,394,578.6,397.4,576.4,398.5z"/>
		
			<radialGradient id="SVGID_31_" cx="3085.8687" cy="-635.7686" r="5.87" gradientTransform="matrix(1.06 0 0 0.74 -432.8902 626.1099)" gradientUnits="userSpaceOnUse">
			<stop  offset="1.000000e-02" style="stop-color:#F8F9F7"/>
			<stop  offset="0.15" style="stop-color:#F8F9F7;stop-opacity:0.78"/>
			<stop  offset="0.31" style="stop-color:#F8F9F8;stop-opacity:0.54"/>
			<stop  offset="0.47" style="stop-color:#F8F9F8;stop-opacity:0.35"/>
			<stop  offset="0.62" style="stop-color:#F8F9F9;stop-opacity:0.2"/>
			<stop  offset="0.76" style="stop-color:#F8F9F9;stop-opacity:9.000000e-02"/>
			<stop  offset="0.88" style="stop-color:#F8F9F9;stop-opacity:2.000000e-02"/>
			<stop  offset="0.98" style="stop-color:#F8F9F9;stop-opacity:0"/>
		</radialGradient>
		<path class="st31" d="M2844.9,155.2c0,2.4-2.8,4.4-6.2,4.4c-3.4,0-6.2-2-6.2-4.4s2.8-4.4,6.2-4.4
			C2842.2,150.8,2844.9,152.8,2844.9,155.2z"/>
		
			<radialGradient id="SVGID_32_" cx="1602.1416" cy="-3236.0112" r="5.87" gradientTransform="matrix(0.4946 0.9375 -0.6545 0.3453 -348.3569 -245.608)" gradientUnits="userSpaceOnUse">
			<stop  offset="1.000000e-02" style="stop-color:#F8F9F7"/>
			<stop  offset="0.15" style="stop-color:#F8F9F7;stop-opacity:0.78"/>
			<stop  offset="0.31" style="stop-color:#F8F9F8;stop-opacity:0.54"/>
			<stop  offset="0.47" style="stop-color:#F8F9F8;stop-opacity:0.35"/>
			<stop  offset="0.62" style="stop-color:#F8F9F9;stop-opacity:0.2"/>
			<stop  offset="0.76" style="stop-color:#F8F9F9;stop-opacity:9.000000e-02"/>
			<stop  offset="0.88" style="stop-color:#F8F9F9;stop-opacity:2.000000e-02"/>
			<stop  offset="0.98" style="stop-color:#F8F9F9;stop-opacity:0"/>
		</radialGradient>
		<path class="st32" d="M2565.6,144.8c-2.1,1.1-5.1-0.4-6.8-3.5c-1.6-3-1.1-6.4,0.9-7.5c2.1-1.1,5.2,0.4,6.8,3.5
			C2568.2,140.3,2567.8,143.7,2565.6,144.8z"/>
		
			<radialGradient id="SVGID_33_" cx="1636.5516" cy="-3399.2012" r="5.87" gradientTransform="matrix(0.4946 0.9375 -0.6545 0.3453 -348.3569 -245.608)" gradientUnits="userSpaceOnUse">
			<stop  offset="1.000000e-02" style="stop-color:#F8F9F7"/>
			<stop  offset="0.15" style="stop-color:#F8F9F7;stop-opacity:0.78"/>
			<stop  offset="0.31" style="stop-color:#F8F9F8;stop-opacity:0.54"/>
			<stop  offset="0.47" style="stop-color:#F8F9F8;stop-opacity:0.35"/>
			<stop  offset="0.62" style="stop-color:#F8F9F9;stop-opacity:0.2"/>
			<stop  offset="0.76" style="stop-color:#F8F9F9;stop-opacity:9.000000e-02"/>
			<stop  offset="0.88" style="stop-color:#F8F9F9;stop-opacity:2.000000e-02"/>
			<stop  offset="0.98" style="stop-color:#F8F9F9;stop-opacity:0"/>
		</radialGradient>
		<path class="st33" d="M2689.7,120.6c-2.1,1.1-5.1-0.4-6.8-3.5c-1.6-3-1.1-6.4,0.9-7.5c2.1-1.1,5.2,0.4,6.8,3.5
			C2692.3,116.1,2691.9,119.5,2689.7,120.6z"/>
		
			<radialGradient id="SVGID_34_" cx="783.048" cy="-288.0277" r="5.87" gradientTransform="matrix(0.4946 0.9375 -0.6545 0.3453 -348.3569 -245.608)" gradientUnits="userSpaceOnUse">
			<stop  offset="1.000000e-02" style="stop-color:#F8F9F7"/>
			<stop  offset="0.15" style="stop-color:#F8F9F7;stop-opacity:0.78"/>
			<stop  offset="0.31" style="stop-color:#F8F9F8;stop-opacity:0.54"/>
			<stop  offset="0.47" style="stop-color:#F8F9F8;stop-opacity:0.35"/>
			<stop  offset="0.62" style="stop-color:#F8F9F9;stop-opacity:0.2"/>
			<stop  offset="0.76" style="stop-color:#F8F9F9;stop-opacity:9.000000e-02"/>
			<stop  offset="0.88" style="stop-color:#F8F9F9;stop-opacity:2.000000e-02"/>
			<stop  offset="0.98" style="stop-color:#F8F9F9;stop-opacity:0"/>
		</radialGradient>
		<path class="st34" d="M231.8,395c-2.1,1.1-5.1-0.4-6.8-3.5c-1.6-3-1.2-6.4,0.9-7.5s5.1,0.4,6.8,3.5
			C234.3,390.5,233.9,393.8,231.8,395z"/>
		
			<radialGradient id="SVGID_35_" cx="664.8137" cy="-348.6877" r="5.87" gradientTransform="matrix(0.4946 0.9375 -0.6545 0.3453 -348.3569 -245.608)" gradientUnits="userSpaceOnUse">
			<stop  offset="1.000000e-02" style="stop-color:#F8F9F7"/>
			<stop  offset="0.15" style="stop-color:#F8F9F7;stop-opacity:0.78"/>
			<stop  offset="0.31" style="stop-color:#F8F9F8;stop-opacity:0.54"/>
			<stop  offset="0.47" style="stop-color:#F8F9F8;stop-opacity:0.35"/>
			<stop  offset="0.62" style="stop-color:#F8F9F9;stop-opacity:0.2"/>
			<stop  offset="0.76" style="stop-color:#F8F9F9;stop-opacity:9.000000e-02"/>
			<stop  offset="0.88" style="stop-color:#F8F9F9;stop-opacity:2.000000e-02"/>
			<stop  offset="0.98" style="stop-color:#F8F9F9;stop-opacity:0"/>
		</radialGradient>
		<path class="st35" d="M213.2,265.4c-2.1,1.1-5.2-0.4-6.8-3.5c-1.6-3-1.2-6.4,0.9-7.5c2.1-1.1,5.1,0.4,6.8,3.5
			C215.7,260.9,215.3,264.3,213.2,265.4z"/>
		
			<radialGradient id="SVGID_36_" cx="950.5387" cy="-65.614" r="8.8" gradientTransform="matrix(1.06 0 0 0.74 -432.8902 626.1099)" gradientUnits="userSpaceOnUse">
			<stop  offset="1.000000e-02" style="stop-color:#F8F9F7"/>
			<stop  offset="0.15" style="stop-color:#F8F9F7;stop-opacity:0.78"/>
			<stop  offset="0.31" style="stop-color:#F8F9F8;stop-opacity:0.54"/>
			<stop  offset="0.47" style="stop-color:#F8F9F8;stop-opacity:0.35"/>
			<stop  offset="0.62" style="stop-color:#F8F9F9;stop-opacity:0.2"/>
			<stop  offset="0.76" style="stop-color:#F8F9F9;stop-opacity:9.000000e-02"/>
			<stop  offset="0.88" style="stop-color:#F8F9F9;stop-opacity:2.000000e-02"/>
			<stop  offset="0.98" style="stop-color:#F8F9F9;stop-opacity:0"/>
		</radialGradient>
		<path class="st36" d="M587,577c0,3.6-4.2,6.5-9.3,6.5s-9.3-2.9-9.3-6.5c0-3.6,4.2-6.5,9.3-6.5S587,573.4,587,577z"/>
		
			<radialGradient id="SVGID_37_" cx="870.1786" cy="66.606" r="5.87" gradientTransform="matrix(1.06 0 0 0.74 -432.8902 626.1099)" gradientUnits="userSpaceOnUse">
			<stop  offset="1.000000e-02" style="stop-color:#F8F9F7"/>
			<stop  offset="0.15" style="stop-color:#F8F9F7;stop-opacity:0.78"/>
			<stop  offset="0.31" style="stop-color:#F8F9F8;stop-opacity:0.54"/>
			<stop  offset="0.47" style="stop-color:#F8F9F8;stop-opacity:0.35"/>
			<stop  offset="0.62" style="stop-color:#F8F9F9;stop-opacity:0.2"/>
			<stop  offset="0.76" style="stop-color:#F8F9F9;stop-opacity:9.000000e-02"/>
			<stop  offset="0.88" style="stop-color:#F8F9F9;stop-opacity:2.000000e-02"/>
			<stop  offset="0.98" style="stop-color:#F8F9F9;stop-opacity:0"/>
		</radialGradient>
		<path class="st37" d="M498.6,675.1c0,2.4-2.8,4.3-6.2,4.3s-6.2-2-6.2-4.3c0-2.4,2.8-4.4,6.2-4.4S498.6,672.7,498.6,675.1z"/>
		
			<radialGradient id="SVGID_38_" cx="811.2086" cy="-183.514" r="5.87" gradientTransform="matrix(1.06 0 0 0.74 -432.8902 626.1099)" gradientUnits="userSpaceOnUse">
			<stop  offset="1.000000e-02" style="stop-color:#F8F9F7"/>
			<stop  offset="0.15" style="stop-color:#F8F9F7;stop-opacity:0.78"/>
			<stop  offset="0.31" style="stop-color:#F8F9F8;stop-opacity:0.54"/>
			<stop  offset="0.47" style="stop-color:#F8F9F8;stop-opacity:0.35"/>
			<stop  offset="0.62" style="stop-color:#F8F9F9;stop-opacity:0.2"/>
			<stop  offset="0.76" style="stop-color:#F8F9F9;stop-opacity:9.000000e-02"/>
			<stop  offset="0.88" style="stop-color:#F8F9F9;stop-opacity:2.000000e-02"/>
			<stop  offset="0.98" style="stop-color:#F8F9F9;stop-opacity:0"/>
		</radialGradient>
		<path class="st38" d="M436,489.5c0,2.4-2.8,4.4-6.2,4.4s-6.2-2-6.2-4.4s2.8-4.4,6.2-4.4S436,487.1,436,489.5z"/>
		
			<radialGradient id="SVGID_39_" cx="973.9186" cy="164.796" r="5.87" gradientTransform="matrix(1.06 0 0 0.74 -432.8902 626.1099)" gradientUnits="userSpaceOnUse">
			<stop  offset="1.000000e-02" style="stop-color:#F8F9F7"/>
			<stop  offset="0.15" style="stop-color:#F8F9F7;stop-opacity:0.78"/>
			<stop  offset="0.31" style="stop-color:#F8F9F8;stop-opacity:0.54"/>
			<stop  offset="0.47" style="stop-color:#F8F9F8;stop-opacity:0.35"/>
			<stop  offset="0.62" style="stop-color:#F8F9F9;stop-opacity:0.2"/>
			<stop  offset="0.76" style="stop-color:#F8F9F9;stop-opacity:9.000000e-02"/>
			<stop  offset="0.88" style="stop-color:#F8F9F9;stop-opacity:2.000000e-02"/>
			<stop  offset="0.98" style="stop-color:#F8F9F9;stop-opacity:0"/>
		</radialGradient>
		<path class="st39" d="M608.8,747.9c0,2.4-2.8,4.4-6.2,4.4s-6.2-2-6.2-4.4s2.8-4.3,6.2-4.3S608.8,745.5,608.8,747.9z"/>
		
			<radialGradient id="SVGID_40_" cx="1266.484" cy="199.7489" r="8.89" gradientTransform="matrix(1.06 0 0 0.74 -432.8902 626.1099)" gradientUnits="userSpaceOnUse">
			<stop  offset="1.000000e-02" style="stop-color:#F8F9F7"/>
			<stop  offset="0.15" style="stop-color:#F8F9F7;stop-opacity:0.78"/>
			<stop  offset="0.31" style="stop-color:#F8F9F8;stop-opacity:0.54"/>
			<stop  offset="0.47" style="stop-color:#F8F9F8;stop-opacity:0.35"/>
			<stop  offset="0.62" style="stop-color:#F8F9F9;stop-opacity:0.2"/>
			<stop  offset="0.76" style="stop-color:#F8F9F9;stop-opacity:9.000000e-02"/>
			<stop  offset="0.88" style="stop-color:#F8F9F9;stop-opacity:2.000000e-02"/>
			<stop  offset="0.98" style="stop-color:#F8F9F9;stop-opacity:0"/>
		</radialGradient>
		<path class="st40" d="M898.5,778.5c0-4.6,5.3-8.3,11.9-8.3c6.6,0,11.9,3.7,11.9,8.3"/>
		
			<radialGradient id="SVGID_41_" cx="-470.14" cy="744.5421" r="8.89" gradientTransform="matrix(0.79 0 0 0.95 1498.8409 -32.28)" gradientUnits="userSpaceOnUse">
			<stop  offset="1.000000e-02" style="stop-color:#F8F9F7"/>
			<stop  offset="0.15" style="stop-color:#F8F9F7;stop-opacity:0.78"/>
			<stop  offset="0.31" style="stop-color:#F8F9F8;stop-opacity:0.54"/>
			<stop  offset="0.47" style="stop-color:#F8F9F8;stop-opacity:0.35"/>
			<stop  offset="0.62" style="stop-color:#F8F9F9;stop-opacity:0.2"/>
			<stop  offset="0.76" style="stop-color:#F8F9F9;stop-opacity:9.000000e-02"/>
			<stop  offset="0.88" style="stop-color:#F8F9F9;stop-opacity:2.000000e-02"/>
			<stop  offset="0.98" style="stop-color:#F8F9F9;stop-opacity:0"/>
		</radialGradient>
		<path class="st41" d="M1114.9,681.8c0-5.9,4-10.7,8.9-10.7s8.9,4.8,8.9,10.7"/>
	</g>
	<g id="clouds">
		
			<linearGradient id="SVGID_42_" gradientUnits="userSpaceOnUse" x1="13177.1113" y1="720.5159" x2="13313.9209" y2="716.7459" gradientTransform="matrix(-1 0 0 1 14441.0693 0)">
			<stop  offset="5.000000e-02" style="stop-color:#FFFFFF"/>
			<stop  offset="1" style="stop-color:#FFFFFF;stop-opacity:0"/>
		</linearGradient>
		<path class="st42" d="M1204.7,703c0,0,2.8-16,24.2-16c21.4,0,22.2,16,22.2,16s15.6-8.8,30,4.9c0,0,11.7-6.3,18.5,5.4
			c6.7,11.7,9.2,15.5,18.4,13.5s24.9-18.2,36-10c11.1,8.2,17.1,2.8,28.3,7.5s22,0.4,22,0.4s-10,6.9-17.4,5.1s-14.3-1.6-18.8,1.5
			s-22.2-4.8-26.7-1.5c-4.4,3.4-12.8,18.2-24.8,10.6c-12-7.5-22.3-1.6-22.3-1.6s-2,12.4-14.6,14.2s-16.3-10.7-16.3-10.7
			s-5.7,4-9.7,0c0,0-4.6,9.1-18.7,9.9c-14.2,0.8-14.1-15.3-16.4-18.8s-8.9-8.7-16.4-8.3c-7.5,0.4-18.2,7.5-24,3.8
			c-5.8-3.7,2.5-8.9,2.5-8.9s-3.1-4.8-8.1-3.8c-5,1-14.4,8.1-25.7,7.7c-11.3-0.3-27.2-5.6-22.9-5.2c1.2,0.1,18,1.8,23.9-0.2
			c5.9-2,21.5-14.2,25.5-14.8c1.4-0.2,1.8-5.2,10.4-5.5s8.7,4.6,8.7,4.6S1196.8,696.3,1204.7,703z"/>
		<linearGradient id="SVGID_43_" gradientUnits="userSpaceOnUse" x1="1960.1284" y1="335.3252" x2="2096.9385" y2="331.5551">
			<stop  offset="5.000000e-02" style="stop-color:#FFFFFF"/>
			<stop  offset="1" style="stop-color:#FFFFFF;stop-opacity:0"/>
		</linearGradient>
		<path class="st43" d="M2019.4,317.8c0,0-2.8-16-24.2-16s-22.2,16-22.2,16s-15.6-8.8-30,4.9c0,0-11.7-6.3-18.4,5.4
			s-9.2,15.5-18.4,13.5s-24.9-18.2-36-10s-17.1,2.8-28.3,7.5s-21.9,0.4-21.9,0.4s10,6.9,17.4,5.1s14.3-1.6,18.8,1.5
			s22.2-4.9,26.7-1.5s12.8,18.2,24.8,10.6s22.3-1.6,22.3-1.6s1.9,12.4,14.5,14.2s16.3-10.7,16.3-10.7s5.7,4,9.7,0
			c0,0,4.6,9.1,18.7,9.9s14.1-15.4,16.4-18.8s8.9-8.7,16.4-8.3s18.2,7.5,23.9,3.8s-2.5-8.9-2.5-8.9s3.1-4.8,8.1-3.8
			c5,1,14.4,8.1,25.7,7.7c11.3-0.4,27.2-5.6,22.9-5.2c-1.2,0.1-18,1.8-23.9-0.2c-5.9-2-21.5-14.2-25.5-14.8
			c-1.4-0.2-1.8-5.2-10.4-5.5s-8.7,4.6-8.7,4.6S2027.3,311.1,2019.4,317.8z"/>
		
			<linearGradient id="SVGID_44_" gradientUnits="userSpaceOnUse" x1="2271.1782" y1="692.0982" x2="2407.9883" y2="688.3282" gradientTransform="matrix(1 0 0 -1 0 1383.3436)">
			<stop  offset="5.000000e-02" style="stop-color:#FFFFFF"/>
			<stop  offset="1" style="stop-color:#FFFFFF;stop-opacity:0"/>
		</linearGradient>
		<path class="st44" d="M2330.5,708.8c0,0-2.8,16-24.2,16c-21.4,0-22.2-16-22.2-16s-15.6,8.8-30-4.9c0,0-11.7,6.3-18.4-5.4
			c-6.7-11.7-9.2-15.5-18.4-13.5c-9.3,2-24.9,18.2-36,10c-11.1-8.2-17.1-2.8-28.3-7.5c-11.2-4.7-21.9-0.4-21.9-0.4s10-6.9,17.4-5.1
			c7.4,1.8,14.3,1.6,18.9-1.5c4.6-3.1,22.2,4.9,26.7,1.5c4.5-3.4,12.8-18.2,24.8-10.6s22.3,1.6,22.3,1.6s1.9-12.4,14.5-14.2
			c12.6-1.8,16.3,10.7,16.3,10.7s5.7-4,9.7,0c0,0,4.6-9.1,18.7-9.9c14.2-0.8,14.1,15.3,16.4,18.8s8.9,8.7,16.4,8.3
			c7.5-0.4,18.2-7.5,23.9-3.8s-2.5,8.9-2.5,8.9s3.1,4.8,8.1,3.8c5-1,14.4-8.1,25.7-7.7c11.3,0.4,27.2,5.6,22.9,5.2
			c-1.2-0.1-18-1.8-23.9,0.2c-5.9,2-21.5,14.2-25.5,14.8c-1.4,0.2-1.8,5.2-10.4,5.5s-8.7-4.6-8.7-4.6S2338.4,715.5,2330.5,708.8z"/>
		<linearGradient id="SVGID_45_" gradientUnits="userSpaceOnUse" x1="1573.3885" y1="366.2135" x2="1357.7886" y2="366.2135">
			<stop  offset="5.000000e-02" style="stop-color:#FFFFFF"/>
			<stop  offset="1" style="stop-color:#FFFFFF;stop-opacity:0"/>
		</linearGradient>
		<path class="st45" d="M1578.6,383.2c-5.2-6.7-25.2,1-31.7,3.2s-18.6-13.5-26.1-9.7s-12.8,2.5-12.8,2.5s-7.8,17.2-32.9,17.8
			c-25,0.6-25.9-14.8-25.9-14.8c-6.2,1.1-7.8-1.9-7.8-1.9s0.5,8.3-12.9,15.1c-13.4,6.7-26.7-5.4-26.7-5.4s-4,4-9.4,3.2
			c-5.4-0.8-10.5-6.7-21.6-2.7c-4.4,1.5-9.2,1.7-13.7,0.5v-16.7c8.8-0.4,19.1,1.3,22.3-4.3c4.4-7.8,21.9-9.1,23.4-8.2
			c-0.4-1.3-1.7-7.9,6.4-11.7c9.5-4.5,23.2,1,23.2,1s-1.8-16.2,18-16.4c19.8-0.2,19.2,21.6,19.2,21.6s8.9-8.5,24.1-5.8
			s19,14.9,19,14.9c5.7-3.1,14.7-4.8,24.6,7.4c9.9,12.3,8.3,8.4,24.8,5.3S1578.6,383.2,1578.6,383.2z"/>
		<linearGradient id="SVGID_46_" gradientUnits="userSpaceOnUse" x1="1737.1685" y1="500.6626" x2="1990.8785" y2="500.6626">
			<stop  offset="5.000000e-02" style="stop-color:#FFFFFF"/>
			<stop  offset="1" style="stop-color:#FFFFFF;stop-opacity:0"/>
		</linearGradient>
		<path class="st46" d="M1990.9,510c0,0-6.7-10-22.9-8.1s-17.7-8.9-29.3-8.9s-13.5,4.4-13.5,4.4s-6.6,0.7-16.7-12
			c-7.2-9.1-28-0.8-24.8,9.4c0,0-12.4-8.4-22.9,0c0,0-3-14.5-13.2-15.4s-13.2,10.2-14,13.5c0.4-10.1-18.4-14.2-22.8-3.7
			c-3.5,7.8-12.3,11.8-20.5,9.2c-8.1-2.7-45.6,6.9-53.2,4.7c6.6,3.4,13.9,5.2,21.3,5.4c11.6,0,22.6-4.7,27.5-2.4s16.9,11.7,22.9,7
			c4.6-3.6,0-7,0-7c6.7,1.6,13.2,4,19.4,7c8.9,4.6,16.4-3,16.4-3s7.6,9.1,18.1,8.9c15-0.4,16.1-9.6,16.1-9.6s0,3.8,6.2,4.7
			c0,0,7.9,12.2,18.5,6c5.7-3.3-0.2-9.8-0.2-9.8s6.4-1.9,12.4,0c5.9,1.9,7.1,8.6,15.7,6.7c3.6-0.7,6.4-3.7,6.8-7.4
			c1.8-2.1,4.5-3.3,7.3-3.1c4.8,0.2,14.7,4.2,23.9,0.3C1973.7,505,1990.9,510,1990.9,510z"/>
		
			<linearGradient id="SVGID_47_" gradientUnits="userSpaceOnUse" x1="12589.1006" y1="615.2457" x2="12842.8506" y2="615.2457" gradientTransform="matrix(-1 0 0 1 13518.5098 0)">
			<stop  offset="5.000000e-02" style="stop-color:#FFFFFF"/>
			<stop  offset="1" style="stop-color:#FFFFFF;stop-opacity:0"/>
		</linearGradient>
		<path class="st47" d="M675.7,624.5c0,0,6.7-10,22.9-8.1c16.2,1.9,17.8-8.9,29.4-8.9s13.5,4.4,13.5,4.4s6.6,0.7,16.7-12
			c7.2-9.1,28-0.8,24.8,9.4c0,0,12.4-8.3,22.9,0c0,0,3-14.5,13.2-15.3s13.2,10.2,14,13.5c-0.4-10.1,18.4-14.2,22.8-3.7
			c3.5,7.9,12.3,11.9,20.5,9.3c8.1-2.7,45.6,6.9,53.2,4.7c-6.6,3.4-13.9,5.2-21.3,5.4c-11.6,0-22.6-4.7-27.5-2.4
			c-4.8,2.4-16.9,11.7-22.9,7c-4.5-3.6,0-7,0-7c-6.7,1.6-13.2,4-19.4,7c-8.9,4.6-16.4-3-16.4-3s-7.6,9.1-18.1,8.9
			c-14.9-0.4-16.1-9.6-16.1-9.6s0,3.8-6.2,4.7c0,0-7.9,12.1-18.5,6c-5.7-3.3,0.2-9.8,0.2-9.8s-6.4-1.9-12.4,0s-7.1,8.6-15.7,6.7
			c-3.6-0.7-6.4-3.7-6.8-7.4c-1.8-2.2-4.5-3.4-7.4-3.2c-4.8,0.2-14.8,4.2-23.9,0.3C692.9,619.5,675.7,624.5,675.7,624.5z"/>
		<g id="moon">
			<path class="st48" d="M1613.5,340.8c0,0-218,3.9-250.8,219.2s182.6,315.8,373.8,264.8s171.8-277.6,121.1-366.6
				S1668.5,328,1613.5,340.8z"/>
			<path class="st49" d="M1636.7,380.4c-101.7-3.7-255,70.1-247.3,220.5s131.3,214.8,291.4,193.9s190.8-174.3,159.3-270.5
				S1700.4,382.7,1636.7,380.4z"/>
			<path class="st50" d="M1638.3,389.9c-113.2-4.1-214.2,54.3-221.4,197.9c-7.2,143.6,128.7,209.5,239.4,198.3
				c130.3-13.2,166.6-115.5,171.4-182S1804.4,395.9,1638.3,389.9z"/>
			<path class="st51" d="M1729.7,421c26.1,42.4,31.7,92.2,29.4,124c-4.6,63.2-39,160.5-163,173c-50.4,5.1-106.3-6.6-150.1-35.2
				c40.4,71.6,131.1,103.3,208.8,95.4c125.1-12.7,159.9-110.9,164.5-174.7C1823,554.7,1808.1,463.8,1729.7,421z"/>
			<path class="st51" d="M1608.8,459.2c0,0-19.7-22.3-44.9-8.4s-12,38.4-12,38.4s7.1-22.7,19.1-30
				C1582.8,452.1,1598.3,454.4,1608.8,459.2z"/>
			<path class="st51" d="M1485.5,592.4c0,0-11.6-11.3-24.7-0.6c-13,10.8-1.4,23.4-1.4,23.4s0.3-13.8,6.5-19.3
				S1478.9,590.8,1485.5,592.4z"/>
			<path class="st51" d="M1701.3,492.5c0,0-4.7-10.6-16.2-6.9c-11.5,3.7-7.1,15.1-7.1,15.1s3.8-9,9.4-11S1697.3,489.6,1701.3,492.5z
				"/>
			<path class="st51" d="M1534.4,641.5c0,0-24.5-13-40.6,10.8s8.8,38.9,8.8,38.9s-6.1-22.7,1.3-34.7
				C1511.2,645,1522.7,642,1534.4,641.5z"/>
		</g>
	</g>
	<linearGradient id="welcomeBack_1_" gradientUnits="userSpaceOnUse" x1="1637.5863" y1="1165.0266" x2="1637.5863" y2="365.2354">
		<stop  offset="5.000000e-02" style="stop-color:#4D3387"/>
		<stop  offset="0.25" style="stop-color:#371D78"/>
		<stop  offset="0.75" style="stop-color:#1D1339"/>
	</linearGradient>
	<path id="welcomeBack" class="st52" d="M2550.2,900.2c38.6,1,123.1-15.7,159.8-27.8c30.4-10,59.7-24.4,91.2-29.3
		c31.1-4.9,73.6,11,93.8,35.2c0.5,0.6,1.1,1.3,1.6,1.9c34.2,42.2,93.4,54.5,141.2,28.8c9.1-4.9,19.4-10,31.3-15.1
		c60.6-25.8,130.9-16.6,181.5,25.6c10.8,9,19.5,18.5,24,27.8c-1,93.1,1.9,216.9-1,252.8c-0.2,2.5-571.4,0.7-589.9,0.7
		c-73.8,0-147.7,0-221.5,0c-147.7,0-295.4,0-443.1,0c-147.7,0-295.4,0-443.1,0c-147.7,0-295.4,0-443.1,0c-146.2,0-292.4,0-438.6-0.1
		c-147.4-0.1-294.8-0.3-442.2-0.4c-84-0.1-168-0.2-252-0.2l0.3-446.1c115.3,6,234.7-70.8,340.4-24.4
		c74.4,32.6,113.4,116.2,181.8,160c57.8,37.1,135.3,41.1,196.7,10.4c24.5-12.3,46.9-29.8,73.7-35.9c31.1-7.1,63.5,2.4,93.4,13.4
		c48.3,17.8,95.1,39.9,139.5,66c38.5,22.6,80.6,49.4,124.3,40.4c33.9-7,59.5-33.9,89.6-50.9c56.4-31.9,126.7-27.5,189.1-10
		c62.4,17.5,121,47,183.7,63.7c93.9,25.1,195.7,20,286.7-14.1c54.7-20.5,106.9-51.6,165.1-56.8c56.1-5,118.1,13.4,165.6-16.9
		c34.2-21.8,52.8-65.2,90.7-79.4c44.7-16.7,91.3,14.4,134.1,35.5C2498.8,876.2,2501.4,899,2550.2,900.2z"/>
	<g id="ninja">
		<g>
			<polygon class="st53" points="1681.5,1323.7 1572.6,1323 1567.8,875 1703.3,875 			"/>
			<polygon class="st54" points="1681.5,1323.7 1581.3,1323 1581.3,875 1689.5,875 			"/>
			<path class="st53" d="M1686,870.8c0,0-11.3,236.8-11.2,236c0.1-0.8,2.8-234.8,2.8-234.8L1686,870.8z"/>
			<path class="st53" d="M1586.1,873.8c0,0,2.8,204.7,3.6,201.7s5.5-201.7,5.5-201.7H1586.1z"/>
		</g>
		<g>
			<g>
				<g>
					<g>
						<path class="st55" d="M1597.6,851.1c-3-14.7-7-33.6-8.2-48.6c1,1.6,2.1,3,3.3,4.4c0.8-13,3-25.8,6.6-38.3
							c-2.3,0.2-3.6,0.3-3.6,0.3l2.3-30.3l-15.4-0.1c-1.1,34.7,4.3,80.3,14.1,112.2c-10.5,0.7-22.5-1.4-29,24.3
							c2.1,0.1,4.2-0.1,6.7,0C1576.5,867.9,1578.6,856.3,1597.6,851.1z"/>
						<path class="st55" d="M1621.1,875h2.4c0-30.6,5.2-83.6,9.3-113.7c-6.6,18.6-10.6,54.4-11.7,74.1
							C1620.9,838.4,1622,872.3,1621.1,875z"/>
						<path class="st56" d="M1673.7,851.1c0.2-1,14.1-83.7,7.1-133.5c0,0.1-0.1,0.1-0.2,0c0.1,1.5,0.1,20.7,0.2,21.5
							c-7.8-0.2-56.9-0.5-82.6-0.6l-2.3,30.3c0,0,1.3-0.1,3.6-0.3c-3.6,12.5-5.8,25.3-6.6,38.3c-1.2-1.4-2.3-2.9-3.3-4.4
							c1.2,15,5.1,33.9,8.2,48.6c-21.4,3.8-23,24-23,24c13.4,0,33.7,0,47.2,0c0,0-0.9-36.7-0.7-39.7c1.2-19.7,5.1-55.5,11.7-74.1
							c0.2,0.4,16.3,87.4,16.7,113.5c17.1,0.7,40,1.5,53.7-0.1C1700.7,864.2,1697.1,851.1,1673.7,851.1z"/>
					</g>
					<g>
						<path class="st55" d="M1680.8,717.6L1680.8,717.6c-1.4-13.6-2.3-89.8-8.4-117.8c-0.1-0.5-0.3-1.2-0.5-1.9
							c-0.1-0.3-34.7-16.5-56.1-28.6c-2.5,6-7.2,17.1-7.9,20.6c-0.1,0.3-0.4,0.5-0.4,0.8c0.6,6.6-3.2,10.8-1.3,16.9
							c3.2,10.4,6.8,17.2,10.5,27.3c2.1,5.7,6.7,8.8,10.6,12.6c5.5,5.3-7.2,6-0.7,7.6c-5.9,3.3,23.8-1,17.5-1.4
							c6.2,4.7-3.8,12.3,3.8,13.9c-1.4,1.3,12.7-0.4,11.8,0.4c0,0.8-27.8,6.3-26,8.5c-2.2,0.3,7-1.2,4.8-1.4
							c2.5,2.8-1.3,8.5,1.4,10.9c-2.4,0.4-3.2,3.6-4.9,3.3c-8.8,12.6,44.5,32.4,46.3,33C1681.4,722.3,1680.7,717.7,1680.8,717.6z"/>
						<path class="st56" d="M1658.6,681.3c1.9,0.4,3.8,0.4,5.7,0c-2.8-2.6-5.5-5.4-8-8.3c2.2,0.2,4.4,0.1,6.6-0.3
							c-1.8-2.2-3.3-3.5-3.3-4.3c1-0.8,1.8-1.1,3.2-2.4c-7.7-1.6-12.6-7.2-18.8-11.9c6.3,0.4,12,0.4,17.9-3
							c-6.5-1.6-15.6-2.6-21.1-7.9c-4-3.8-6.5-10.5-8.6-16.2c-3.7-10.1-21.4-9.4-24.5-19.7c-1.9-6.2,0.6-9.5,0-16.1
							c0-0.3,0-0.6,0.1-0.8c0.7-3.5,5.4-14.6,7.9-20.6c21.4,12.1,56,28.3,56.1,28.6l0,0l-0.3-0.8c-2.8-7.8-9.8-23-13.8-26.8
							c-1.2-1.1-2.3-2.3-3.3-3.7c-1.5-2.1-2.8-4.1-5.1-4.4c-7.1-1.1-22.7-5.5-30.3-0.8c-0.7,1.1-1.3,2.2-1.8,3.4
							c-0.9,1.9-2.1,3.7-3.5,5.3c-4,4.5-8.4,17.9-10.5,23.2c-17,43.3-21,145.2-21,145.2h0.3c1.3,0,92,0.5,99.8,0.7
							c0-0.8-1.5-25.7-2.2-27.3C1672.1,707.5,1662.8,691.9,1658.6,681.3z"/>
					</g>
				</g>
				<g>
					<path class="st57" d="M1681.1,701.4c-61.6,5-61.6,4.9-66.9,4.4c0-0.2,0.2-2.6,0.2-2.6c-2.9-7.2-7.4-3.3-7.4-3.3
						c-2.4-0.4-3.7,0.4-4.4,1.3c-1,2.2-1.6,4.5-1.9,6.9c0,0-0.9,1.1-0.8-2.5c-10.9-1-11.4-1.1-15-2c-1.1,2-1,8.3-1.1,11.1
						c5.3-0.6,10.7-0.7,16.1-0.2c-4.1,7.7-12.3,22.9-16.1,38.5c0,0,3.2,2.1,5.4,9.2c0,0,3.5-6.5,1.5,3.3c0.8,2,1.4,4,1.9,6.1
						c0,0,3.6-25.7,12.7-49.1c1.3,0.8,2.8,1.1,4.3,1c1.5,5.7,3.1,14.2,4.2,26.9c1.5-3.5,3.8-6.7,6.6-9.3c0,0-3.3-9.7,2.6-2.3
						c1.3-0.6,2.7-1.1,4.2-1.5c0,0-4.3-14.5-9.8-23.8c4.8,0.1,64.2-1,64.2-1S1682.2,703.5,1681.1,701.4z"/>
					<path class="st0" d="M1599.5,748.9c0,0,3.5-11.6,6.7-18c0,0-1.7,7.5-3.2,15.7L1599.5,748.9z"/>
				</g>
			</g>
			<g>
				<path class="st58" d="M1676.4,639l-33,0.3c0-0.3,1.2-22.1-8.9-20.5c-0.5,0.1,0.3,14.2,0.3,15.3c-0.3,4.6-0.4,12-1,14.4
					c-0.7,2.5-0.3,5.2,1.2,7.4c1.5,2.4,4.1,3.9,7,4c1.7,0.1,3.4-0.6,4.5-1.9l31.4-0.1L1676.4,639z"/>
				<path class="st51" d="M1676.3,639l-33,0.3c0-0.3,1-24.9-9.1-23.3c-0.5,0.1,0.5,17,0.4,18.2c-0.3,4.6-0.4,12-1,14.4
					c-0.7,2.5-0.3,5.2,1.2,7.4c1.5,2.4,4.2,3.9,7,4c1.7,0.1,3.4-0.6,4.5-1.9l31.4-0.1L1676.3,639z"/>
				<path class="st51" d="M1591.3,639.4l32.6,0.6c0-0.3,0.6-23.7,9.6-23.1c0.4,0.2-1.3,16.2-1.2,17.9c0.3,4.4,0.2,11.2,0.8,13.8
					c0.8,3,0.1,6.2-1.9,8.5c-1.5,1.8-3.7,2.8-6,2.8c-1.7,0.1-3.3-0.6-4.3-1.9l-30.8-0.1L1591.3,639.4z"/>
			</g>
			<g>
				<path class="st56" d="M1743.9,647.8c-7.1-34.4-78.1-83.4-91.4-81.2c1.2,4.2,11.5,18,17.9,27.1c6.2,8.3,30.6,36.7,33.4,41.9
					c-5.7,2.6-42.3-1.5-43.2,1.3c-0.1,8.6-0.8,14.4-1.5,23C1681.3,663.8,1726.2,658.5,1743.9,647.8z"/>
				<path class="st56" d="M1525.8,650c8.8-30.4,61.9-86.4,92.5-82c0.2,0.1,3.8-0.7,1.2,0.5c1.4-0.4-3.7,1.9-3.9,2.4
					c-1.3,3.3-7.3,12.8-11.4,22.3c-10.2,5.7-37.6,38.2-40.4,43.5c5.7,2.6,45-0.7,45.9,2.2c2.6,8.3-1.1,14.9,0.7,23.4
					C1590.8,664,1549.9,662.3,1525.8,650z"/>
			</g>
			<g>
				<g>
					<path class="st59" d="M1611.3,489.4c-12.1,17-33.1,15.8-51.6,13.5c-16-2.1-33.6-4.2-46.9,5.3c0.3-0.6,0.6-1.2,1-1.8
						c7.9-13.4,23.6-21.2,39.1-23.2C1572.5,480.7,1592.3,485.8,1611.3,489.4z"/>
					<path class="st59" d="M1551.4,516.8c8-9.7,17.9-20,31.7-17.1c-7.8,10.6-15.2,22.2-26,29.9c-8.6,6.2-20,9.5-30,6.5
						c-0.4-0.1-0.9-0.3-1.3-0.4C1536.7,534.3,1544.4,525.2,1551.4,516.8z"/>
				</g>
				<g>
					<g>
						<g>
							<path class="st55" d="M1691.3,512.2c-3.5-11.5-13.4-12-23.4-13.4c-10.8-1.5-21.7-2.2-32.6-2.2l0,0c-10.9,0-21.8,0.7-32.5,2.2
								c-10,1.4-19.9,1.9-23.4,13.4c-3.5,11.5,3.1,20.1,13.1,23.5c12,4.1,30.8-2.9,42.9-2.9l0,0c12.1,0,30.8,7,42.9,2.9
								C1688.3,532.2,1694.3,523.6,1691.3,512.2z"/>
							<path class="st51" d="M1663.3,532c-4.9,0-10.4-1-15.8-1.9c-9.3-2.3-19-2.3-28.2,0c-5.3,0.9-10.9,1.9-15.8,1.9
								c-2.5,0.1-4.9-0.3-7.2-1c-6.6-2.2-12.6-7.7-9.8-16.6c2.2-7.1,7.8-8.2,16.7-9.3l1.8-0.2c9.4-1.3,18.8-1.9,28.3-1.9h0.4
								c9.5,0,18.9,0.6,28.3,1.9l1.8,0.2c8.9,1.1,14.5,2.2,16.7,9.3c2.8,8.9-3.2,14.4-9.8,16.6
								C1668.2,531.7,1665.7,532.1,1663.3,532L1663.3,532z"/>
						</g>
						<circle class="st0" cx="1604.3" cy="519" r="3"/>
						<circle class="st0" cx="1660.3" cy="518" r="3"/>
						<path class="st60" d="M1609,508c-4.8-0.8-9.3-0.1-11.7,1.6"/>
						<path class="st60" d="M1669.6,509.1c-2.2-1.7-6.1-2.4-10.3-1.6"/>
						<polygon class="st55" points="1631.5,518 1630.2,530 1638.3,530 1636.7,518 						"/>
					</g>
					<g>
						<path class="st61" d="M1678.3,466.3l4.4,6.5l2.8,4.3l0.2,0.2c0,0.1,0.1,0.1,0.1,0.2c0,0.1,0.2,0.3,0.3,0.4
							c0.1,0.1,0.2,0.3,0.3,0.4l0,0l-1-0.2c-1.5-0.3-3-0.6-4.5-0.8c-2.8-0.3-5.5-0.4-8.3-0.4c-0.1,0-0.2,0-0.3,0.1
							c0.5,0.1-0.7,1.5-0.2,1.6c6.5,2.3,14.3,4.9,19,9.9l0.1,0l0,0v0c-0.6-0.1-1.2-0.1-1.8-0.2c-2.1-0.2-4.2-0.3-6.3-0.3
							c-5.1,0.1-15.2,0.5-20.3,1.6c12.5,4.4,26.8,12.9,29.5,26.7c0.1,0.7,0.1,1.4,0.1,2.1c1.9-9.2,1.8-18.8-0.4-27.9
							c-1.8-7.7-5.4-18-11.1-23.5C1680,467,1679.1,466.8,1678.3,466.3z"/>
						<path class="st61" d="M1680.7,525.8c-0.9,0.5-5.6,6.4-7.5,8.3h0.5c3.9-0.1,7.8-0.5,11.6-1.2l2.9-0.5c1.3-3,2.4-6.1,3.3-9.3
							v-0.2l-10.2,2.8L1680.7,525.8z"/>
						<path class="st55" d="M1692.3,516.5c-2.7-13.8-12-22.2-24.5-26.6c5-1.1,10.1-1.7,15.2-1.8c2.1,0,4.2,0.1,6.3,0.3
							c0.6,0.1,1.2,0.1,1.8,0.2l0,0l0,0c-4.7-5-10.6-8.8-17.1-11.1c-0.5-0.2-1-0.4-1.5-0.5h0.1c2.8-0.1,5.5,0.1,8.3,0.4
							c1.5,0.2,3,0.4,4.5,0.8l1,0.2l0,0c0,0-0.2-0.2-0.3-0.4s-0.2-0.2-0.3-0.4c0-0.1-0.1-0.1-0.1-0.2c-2.1-3.1-7.1-10.9-7.1-10.9
							c0.7,0.4,1.6,0.6,2.4,0.7c-14.2-22.1-60.6-30.2-87.5-6.4c1.7-0.2,1.7,4.6,3.3,4.5c1.2-0.1-2.5,1.4-14.4,10.8
							c-2.4,12,0,13.8,21,19.6c-6.1,0.9,22.4,4.8,22.4,4.8l7.3-0.9c9.3,0,18.6,0.6,27.8,1.9c7.8,1.1,16.7,1.8,19.8,10.8
							c3.3,9.3-2.6,17.7-11,20.5c-11.5,3.9-24.2-2.1-35.8-2.3c-12.2-0.2-25.3,6.4-37.3,2.3c-8.5-2.9-14.1-10.2-11.2-20
							c0.6-2.4,1.9-4.6,3.8-6.4c-4.3,0.7-3.4,0.6-7.8,1.3c-0.6,0.1-4,5-5.7,7c0.6,4.5,1.7,9,3.3,13.3c6.3,4.7,12.9,44.6,84.8,31.3
							c10.7-6.3,19.2-15.7,24.3-27l-2.8,0.5l-1.5,0.2c-3.5,0.6-7,0.9-10.6,1l0,0c1.9-1.8,8.7-5.8,9.6-6.3l0,0l8.6-4.8
							C1692.7,518,1692.4,517,1692.3,516.5z"/>
						<path class="st56" d="M1664.3,494.5c-21.1-5.9-43.9-10.4-65.8-8.5c7.2-3,14.6-5.4,22.2-7.2c-12.2,0-25.3,0.7-37.3,3.1
							c2.5-3,17.1-8,17.1-8s-13.5,1.7-17.3,2.4c17.5-8,35.8-13.9,54.7-17.6c-12-0.3-24,0.1-36,1.1h-0.1l-3.3,0.3
							c-1.7,0.2-3.4,0.4-5,0.6c-4.4,4.4-8.1,9.5-11,15l-0.2,0.4c-5.1,10.1-7.5,21.3-7,32.6c0.1,2,0.3,4,0.6,6
							C1588.8,500.5,1618.5,493.8,1664.3,494.5z"/>
						<path class="st56" d="M1593.1,545.7h-0.5c5.9,0.6,11.9,0.8,17.8,0.7h0.3l2.6-0.1c-3.4-0.7-6.7-1.6-10.1-2.6
							c-1.3-0.4-2.7-0.9-4-1.3c-3.3-1.2-6.6-2.5-9.7-4.1l0,0c3.9,0.3,7.9,0.5,11.8,0.4h1.7l-2.6-0.8c-7.3-2.3-15-5-21.3-9.8
							c2.2,6.2,5.4,12,9.5,17.2c0,0,0.7,1,2.1,2.5c3,3.4,6.4,6.4,10,9.1c5,3.7,10.5,6.7,16.4,8.7c10.6,3.6,23.8,4.3,39-2.3
							c2.6-1.1,5.2-2.4,7.7-3.9h0.1l0,0C1608.9,564,1593.1,545.8,1593.1,545.7z"/>
					</g>
				</g>
			</g>
		</g>
	</g>
	<linearGradient id="cloud_1_" gradientUnits="userSpaceOnUse" x1="1714.7089" y1="818.1573" x2="2038.4386" y2="818.1573">
		<stop  offset="5.000000e-02" style="stop-color:#FFFFFF"/>
		<stop  offset="1" style="stop-color:#FFFFFF;stop-opacity:0"/>
	</linearGradient>
	<path id="cloud" class="st62" d="M2038.4,830.1c0,0-8.6-12.7-29.2-10.3s-22.7-11.3-37.5-11.3s-17.2,5.7-17.2,5.7
		s-8.4,0.9-21.3-15.3c-9.2-11.6-35.7-1-31.6,12c0,0-15.8-10.7-29.2,0c0,0-3.8-18.6-16.8-19.6s-16.8,13-17.9,17.2
		c0.6-12.9-23.5-18.1-29.1-4.8c-4.4,10-15.7,15.1-26.1,11.8c-10.3-3.4-58.2,8.8-67.8,6c0,0,12.4,6.9,27.2,6.9s28.9-6.1,35-3
		s21.6,14.9,29.2,8.9c5.8-4.6,0-8.9,0-8.9c8.5,2,16.8,5,24.7,8.9c11.3,5.8,21-3.8,21-3.8s9.7,11.7,23.1,11.3
		c19.1-0.5,20.6-12.3,20.6-12.3s0,4.8,7.9,6c0,0,10.1,15.5,23.6,7.6c7.2-4.2-0.2-12.5-0.2-12.5s8.2-2.4,15.8,0s9.1,11,20,8.6
		c4.6-0.9,8.2-4.8,8.7-9.5c2.3-2.7,5.8-4.2,9.4-4c6.2,0.3,18.8,5.4,30.5,0.4C2016.5,823.6,2038.4,830.1,2038.4,830.1z"/>
</g>
</svg>
