<svg xmlns="http://www.w3.org/2000/svg" viewBox="0 0 50 50">
  <title>Asset 4</title>
  <g id="Layer_2" data-name="Layer 2">
    <g id="Layer_1-2" data-name="Layer 1">
      <g id="Homepage">
        <g id="Main_-_Footer" data-name="Main - Footer">
          <g id="Social_Links" data-name="Social Links">
            <g id="Social">
              <path id="rect5236" d="M8.34,0A8.33,8.33,0,0,0,0,8.3V41.67A8.31,8.31,0,0,0,8.31,50H41.67A8.31,8.31,0,0,0,50,41.71V8.33A8.31,8.31,0,0,0,41.71,0H8.34Zm6.91,9.38H34.76a5.9,5.9,0,0,1,5.87,5.86V34.76a5.91,5.91,0,0,1-5.87,5.87H15.25a5.9,5.9,0,0,1-5.87-5.87V15.24A5.9,5.9,0,0,1,15.25,9.38Zm0,3.9a1.93,1.93,0,0,0-2,1.86V34.76a1.93,1.93,0,0,0,1.86,2H34.76a1.93,1.93,0,0,0,2-1.86V15.24a1.93,1.93,0,0,0-1.86-2h-.14Zm17.57,2a2,2,0,1,1,0,3.9h0a2,2,0,0,1-2-1.95h0a2,2,0,0,1,2-2Zm-7.82,2a7.81,7.81,0,1,1-7.81,7.81V25A7.85,7.85,0,0,1,25,17.19Zm0,3.9a3.91,3.91,0,1,0,3.91,3.91V25a3.88,3.88,0,0,0-3.85-3.91H25Z" fill="#222"/>
            </g>
          </g>
        </g>
      </g>
    </g>
  </g>
</svg>
